<?xml version="1.0" encoding="UTF-8"?>
<!DOCTYPE svg PUBLIC '-//W3C//DTD SVG 1.0//EN'
          'http://www.w3.org/TR/2001/REC-SVG-20010904/DTD/svg10.dtd'>
<svg fill-opacity="0" xmlns:xlink="http://www.w3.org/1999/xlink" color-rendering="auto" color-interpolation="auto" text-rendering="auto" stroke="rgb(0,0,0)" stroke-linecap="square" width="935" stroke-miterlimit="10" shape-rendering="auto" stroke-opacity="0" fill="rgb(0,0,0)" stroke-dasharray="none" font-weight="normal" stroke-width="1" height="606" xmlns="http://www.w3.org/2000/svg" font-family="'Dialog'" font-style="normal" stroke-linejoin="miter" font-size="12px" stroke-dashoffset="0" image-rendering="auto"
><!--Generated by the Batik Graphics2D SVG Generator--><defs id="genericDefs"
  /><g
  ><defs id="defs1"
    ><clipPath clipPathUnits="userSpaceOnUse" id="clipPath1"
      ><path d="M-7 -7 L101 -7 L101 51 L-7 51 L-7 -7 Z"
      /></clipPath
      ><clipPath clipPathUnits="userSpaceOnUse" id="clipPath2"
      ><path d="M0 0 L0 25 L90 25 L90 0 Z"
      /></clipPath
      ><clipPath clipPathUnits="userSpaceOnUse" id="clipPath3"
      ><path d="M0 0 L0 15 L90 15 L90 0 Z"
      /></clipPath
      ><clipPath clipPathUnits="userSpaceOnUse" id="clipPath4"
      ><path d="M-7 -7 L132 -7 L132 79 L-7 79 L-7 -7 Z"
      /></clipPath
      ><clipPath clipPathUnits="userSpaceOnUse" id="clipPath5"
      ><path d="M0 0 L0 53 L121 53 L121 0 Z"
      /></clipPath
      ><clipPath clipPathUnits="userSpaceOnUse" id="clipPath6"
      ><path d="M0 0 L0 15 L121 15 L121 0 Z"
      /></clipPath
      ><clipPath clipPathUnits="userSpaceOnUse" id="clipPath7"
      ><path d="M-7 -7 L127 -7 L127 79 L-7 79 L-7 -7 Z"
      /></clipPath
      ><clipPath clipPathUnits="userSpaceOnUse" id="clipPath8"
      ><path d="M0 0 L0 53 L116 53 L116 0 Z"
      /></clipPath
      ><clipPath clipPathUnits="userSpaceOnUse" id="clipPath9"
      ><path d="M0 0 L0 15 L116 15 L116 0 Z"
      /></clipPath
      ><clipPath clipPathUnits="userSpaceOnUse" id="clipPath10"
      ><path d="M-7 -7 L93 -7 L93 94 L-7 94 L-7 -7 Z"
      /></clipPath
      ><clipPath clipPathUnits="userSpaceOnUse" id="clipPath11"
      ><path d="M0 0 L0 68 L82 68 L82 0 Z"
      /></clipPath
      ><clipPath clipPathUnits="userSpaceOnUse" id="clipPath12"
      ><path d="M0 0 L0 15 L82 15 L82 0 Z"
      /></clipPath
      ><clipPath clipPathUnits="userSpaceOnUse" id="clipPath13"
      ><path d="M-7 -7 L93 -7 L93 109 L-7 109 L-7 -7 Z"
      /></clipPath
      ><clipPath clipPathUnits="userSpaceOnUse" id="clipPath14"
      ><path d="M0 0 L0 83 L82 83 L82 0 Z"
      /></clipPath
      ><clipPath clipPathUnits="userSpaceOnUse" id="clipPath15"
      ><path d="M-7 -7 L91 -7 L91 51 L-7 51 L-7 -7 Z"
      /></clipPath
      ><clipPath clipPathUnits="userSpaceOnUse" id="clipPath16"
      ><path d="M0 0 L0 25 L80 25 L80 0 Z"
      /></clipPath
      ><clipPath clipPathUnits="userSpaceOnUse" id="clipPath17"
      ><path d="M0 0 L0 15 L80 15 L80 0 Z"
      /></clipPath
      ><clipPath clipPathUnits="userSpaceOnUse" id="clipPath18"
      ><path d="M-7 -7 L99 -7 L99 51 L-7 51 L-7 -7 Z"
      /></clipPath
      ><clipPath clipPathUnits="userSpaceOnUse" id="clipPath19"
      ><path d="M0 0 L0 25 L88 25 L88 0 Z"
      /></clipPath
      ><clipPath clipPathUnits="userSpaceOnUse" id="clipPath20"
      ><path d="M0 0 L0 15 L88 15 L88 0 Z"
      /></clipPath
      ><clipPath clipPathUnits="userSpaceOnUse" id="clipPath21"
      ><path d="M-7 -7 L101 -7 L101 79 L-7 79 L-7 -7 Z"
      /></clipPath
      ><clipPath clipPathUnits="userSpaceOnUse" id="clipPath22"
      ><path d="M0 0 L0 53 L90 53 L90 0 Z"
      /></clipPath
      ><clipPath clipPathUnits="userSpaceOnUse" id="clipPath23"
      ><path d="M-7 -7 L105 -7 L105 79 L-7 79 L-7 -7 Z"
      /></clipPath
      ><clipPath clipPathUnits="userSpaceOnUse" id="clipPath24"
      ><path d="M0 0 L0 53 L94 53 L94 0 Z"
      /></clipPath
      ><clipPath clipPathUnits="userSpaceOnUse" id="clipPath25"
      ><path d="M0 0 L0 15 L94 15 L94 0 Z"
      /></clipPath
      ><clipPath clipPathUnits="userSpaceOnUse" id="clipPath26"
      ><path d="M-7 -7 L157 -7 L157 124 L-7 124 L-7 -7 Z"
      /></clipPath
      ><clipPath clipPathUnits="userSpaceOnUse" id="clipPath27"
      ><path d="M0 0 L0 98 L146 98 L146 0 Z"
      /></clipPath
      ><clipPath clipPathUnits="userSpaceOnUse" id="clipPath28"
      ><path d="M0 0 L0 15 L146 15 L146 0 Z"
      /></clipPath
      ><clipPath clipPathUnits="userSpaceOnUse" id="clipPath29"
      ><path d="M-7 -7 L120 -7 L120 97 L-7 97 L-7 -7 Z"
      /></clipPath
      ><clipPath clipPathUnits="userSpaceOnUse" id="clipPath30"
      ><path d="M0 0 L0 71 L109 71 L109 0 Z"
      /></clipPath
      ><clipPath clipPathUnits="userSpaceOnUse" id="clipPath31"
      ><path d="M0 0 L0 15 L109 15 L109 0 Z"
      /></clipPath
      ><clipPath clipPathUnits="userSpaceOnUse" id="clipPath32"
      ><path d="M-7 -7 L38 -7 L38 26 L-7 26 L-7 -7 Z"
      /></clipPath
      ><clipPath clipPathUnits="userSpaceOnUse" id="clipPath33"
      ><path d="M0 0 L0 15 L27 15 L27 0 Z"
      /></clipPath
      ><clipPath clipPathUnits="userSpaceOnUse" id="clipPath34"
      ><path d="M-7 -7 L36 -7 L36 26 L-7 26 L-7 -7 Z"
      /></clipPath
      ><clipPath clipPathUnits="userSpaceOnUse" id="clipPath35"
      ><path d="M0 0 L0 15 L25 15 L25 0 Z"
      /></clipPath
      ><clipPath clipPathUnits="userSpaceOnUse" id="clipPath36"
      ><path d="M-7 -7 L48 -7 L48 26 L-7 26 L-7 -7 Z"
      /></clipPath
      ><clipPath clipPathUnits="userSpaceOnUse" id="clipPath37"
      ><path d="M0 0 L0 15 L37 15 L37 0 Z"
      /></clipPath
      ><clipPath clipPathUnits="userSpaceOnUse" id="clipPath38"
      ><path d="M-7 -7 L50 -7 L50 26 L-7 26 L-7 -7 Z"
      /></clipPath
      ><clipPath clipPathUnits="userSpaceOnUse" id="clipPath39"
      ><path d="M0 0 L0 15 L39 15 L39 0 Z"
      /></clipPath
      ><clipPath clipPathUnits="userSpaceOnUse" id="clipPath40"
      ><path d="M0 0 L271 0 L271 104 L0 104 L0 0 Z"
      /></clipPath
      ><clipPath clipPathUnits="userSpaceOnUse" id="clipPath41"
      ><path d="M184 31 L184 46 L82 46 L82 31 ZM0 0 L0 104 L271 104 L271 0 Z"
      /></clipPath
      ><clipPath clipPathUnits="userSpaceOnUse" id="clipPath42"
      ><path d="M0 0 L260 0 L260 186 L0 186 L0 0 Z"
      /></clipPath
      ><clipPath clipPathUnits="userSpaceOnUse" id="clipPath43"
      ><path d="M158 30 L158 45 L96 45 L96 30 ZM192 137 L192 152 L90 152 L90 137 ZM0 0 L0 186 L260 186 L260 0 L99 0 L99 10 L39 10 L39 0 Z"
      /></clipPath
      ><clipPath clipPathUnits="userSpaceOnUse" id="clipPath44"
      ><path d="M0 0 L535 0 L535 323 L0 323 L0 0 Z"
      /></clipPath
      ><clipPath clipPathUnits="userSpaceOnUse" id="clipPath45"
      ><path d="M289 27 L289 42 L227 42 L227 27 ZM498 111 L498 126 L415 126 L415 111 ZM137 132 L137 147 L77 147 L77 132 ZM196 167 L196 182 L134 182 L134 167 ZM415 180 L415 195 L367 195 L367 180 ZM480 214 L480 229 L399 229 L399 214 ZM411 266 L411 281 L363 281 L363 266 ZM230 274 L230 289 L128 289 L128 274 ZM0 0 L0 323 L535 323 L535 317 L516 317 L516 302 L535 302 L535 0 L210 0 L210 4 L150 4 L150 0 Z"
      /></clipPath
      ><clipPath clipPathUnits="userSpaceOnUse" id="clipPath46"
      ><path d="M0 0 L281 0 L281 200 L0 200 L0 0 Z"
      /></clipPath
      ><clipPath clipPathUnits="userSpaceOnUse" id="clipPath47"
      ><path d="M192 13 L192 28 L90 28 L90 13 ZM167 127 L167 142 L98 142 L98 127 ZM0 0 L0 200 L281 200 L281 0 Z"
      /></clipPath
      ><clipPath clipPathUnits="userSpaceOnUse" id="clipPath48"
      ><path d="M0 0 L314 0 L314 288 L0 288 L0 0 Z"
      /></clipPath
      ><clipPath clipPathUnits="userSpaceOnUse" id="clipPath49"
      ><path d="M230 13 L230 28 L128 28 L128 13 ZM205 127 L205 142 L136 142 L136 127 ZM102 211 L102 226 L54 226 L54 211 ZM0 0 L0 288 L314 288 L314 0 Z"
      /></clipPath
      ><clipPath clipPathUnits="userSpaceOnUse" id="clipPath50"
      ><path d="M0 0 L319 0 L319 104 L0 104 L0 0 Z"
      /></clipPath
      ><clipPath clipPathUnits="userSpaceOnUse" id="clipPath51"
      ><path d="M198 31 L198 46 L117 46 L117 31 ZM276 83 L276 98 L216 98 L216 83 ZM0 0 L0 104 L319 104 L319 0 L194 0 L194 5 L113 5 L113 0 Z"
      /></clipPath
      ><clipPath clipPathUnits="userSpaceOnUse" id="clipPath52"
      ><path d="M0 0 L323 0 L323 134 L0 134 L0 0 Z"
      /></clipPath
      ><clipPath clipPathUnits="userSpaceOnUse" id="clipPath53"
      ><path d="M198 59 L198 74 L117 74 L117 59 ZM202 100 L202 115 L121 115 L121 100 ZM0 0 L0 134 L323 134 L323 0 Z"
      /></clipPath
      ><clipPath clipPathUnits="userSpaceOnUse" id="clipPath54"
      ><path d="M0 0 L133 0 L133 345 L0 345 L0 0 Z"
      /></clipPath
      ><clipPath clipPathUnits="userSpaceOnUse" id="clipPath55"
      ><path d="M0 0 L0 147 L62 147 L62 162 L0 162 L0 345 L133 345 L133 177 L84 177 L84 162 L133 162 L133 28 L80 28 L80 13 L133 13 L133 0 Z"
      /></clipPath
      ><clipPath clipPathUnits="userSpaceOnUse" id="clipPath56"
      ><path d="M0 0 L161 0 L161 121 L0 121 L0 0 Z"
      /></clipPath
      ><clipPath clipPathUnits="userSpaceOnUse" id="clipPath57"
      ><path d="M89 24 L89 39 L8 39 L8 24 ZM24 0 L24 5 L0 5 L0 76 L20 76 L20 91 L0 91 L0 121 L125 121 L125 112 L161 112 L161 0 Z"
      /></clipPath
      ><clipPath clipPathUnits="userSpaceOnUse" id="clipPath58"
      ><path d="M0 0 L295 0 L295 145 L0 145 L0 0 Z"
      /></clipPath
      ><clipPath clipPathUnits="userSpaceOnUse" id="clipPath59"
      ><path d="M158 31 L158 46 L110 46 L110 31 ZM223 65 L223 80 L142 80 L142 65 ZM154 117 L154 132 L106 132 L106 117 ZM0 0 L0 145 L295 145 L295 0 Z"
      /></clipPath
      ><clipPath clipPathUnits="userSpaceOnUse" id="clipPath60"
      ><path d="M0 0 L244 0 L244 136 L0 136 L0 0 Z"
      /></clipPath
      ><clipPath clipPathUnits="userSpaceOnUse" id="clipPath61"
      ><path d="M149 64 L149 79 L61 79 L61 64 ZM0 0 L0 136 L244 136 L244 0 Z"
      /></clipPath
      ><clipPath clipPathUnits="userSpaceOnUse" id="clipPath62"
      ><path d="M0 0 L283 0 L283 154 L0 154 L0 0 Z"
      /></clipPath
      ><clipPath clipPathUnits="userSpaceOnUse" id="clipPath63"
      ><path d="M181 82 L181 97 L98 97 L98 82 ZM0 0 L0 154 L50 154 L50 151 L98 151 L98 154 L283 154 L283 0 Z"
      /></clipPath
      ><clipPath clipPathUnits="userSpaceOnUse" id="clipPath64"
      ><path d="M0 0 L391 0 L391 486 L0 486 L0 0 Z"
      /></clipPath
      ><clipPath clipPathUnits="userSpaceOnUse" id="clipPath65"
      ><path d="M201 29 L201 44 L141 44 L141 29 ZM260 64 L260 79 L198 79 L198 64 ZM294 171 L294 186 L192 186 L192 171 ZM269 285 L269 300 L200 300 L200 285 ZM166 369 L166 384 L118 384 L118 369 ZM0 0 L0 486 L391 486 L391 266 L390 266 L390 251 L391 251 L391 0 Z"
      /></clipPath
      ><clipPath clipPathUnits="userSpaceOnUse" id="clipPath66"
      ><path d="M0 0 L626 0 L626 644 L0 644 L0 0 Z"
      /></clipPath
      ><clipPath clipPathUnits="userSpaceOnUse" id="clipPath67"
      ><path d="M535 7 L535 22 L473 22 L473 7 ZM301 29 L301 44 L241 44 L241 29 ZM380 67 L380 82 L318 82 L318 67 ZM589 151 L589 166 L506 166 L506 151 ZM228 172 L228 187 L168 187 L168 172 ZM287 207 L287 222 L225 222 L225 207 ZM506 220 L506 235 L458 235 L458 220 ZM571 254 L571 269 L490 269 L490 254 ZM502 306 L502 321 L454 321 L454 306 ZM321 314 L321 329 L219 329 L219 314 ZM505 394 L505 409 L417 409 L417 394 ZM296 428 L296 443 L227 443 L227 428 ZM585 477 L585 492 L504 492 L504 477 ZM193 512 L193 527 L145 527 L145 512 ZM589 518 L589 533 L508 533 L508 518 ZM526 591 L526 606 L464 606 L464 591 ZM0 0 L0 644 L626 644 L626 585 L607 585 L607 570 L626 570 L626 357 L607 357 L607 342 L626 342 L626 0 Z"
      /></clipPath
      ><clipPath clipPathUnits="userSpaceOnUse" id="clipPath68"
      ><path d="M0 0 L549 0 L549 226 L0 226 L0 0 Z"
      /></clipPath
      ><clipPath clipPathUnits="userSpaceOnUse" id="clipPath69"
      ><path d="M220 59 L220 74 L139 74 L139 59 ZM224 100 L224 115 L143 115 L143 100 ZM302 152 L302 167 L242 167 L242 152 ZM161 173 L161 188 L99 188 L99 173 ZM0 0 L0 226 L549 226 L549 0 Z"
      /></clipPath
      ><clipPath clipPathUnits="userSpaceOnUse" id="clipPath70"
      ><path d="M0 0 L248 0 L248 104 L0 104 L0 0 Z"
      /></clipPath
      ><clipPath clipPathUnits="userSpaceOnUse" id="clipPath71"
      ><path d="M159 31 L159 46 L80 46 L80 31 ZM0 0 L0 104 L248 104 L248 0 L182 0 L182 4 L96 4 L96 0 Z"
      /></clipPath
      ><clipPath clipPathUnits="userSpaceOnUse" id="clipPath72"
      ><path d="M0 0 L864 0 L864 360 L0 360 L0 0 Z"
      /></clipPath
      ><clipPath clipPathUnits="userSpaceOnUse" id="clipPath73"
      ><path d="M439 5 L439 20 L391 20 L391 5 ZM258 13 L258 28 L156 28 L156 13 ZM622 41 L622 56 L544 56 L544 41 ZM716 56 L716 71 L644 71 L644 56 ZM442 93 L442 108 L354 108 L354 93 ZM233 127 L233 142 L164 142 L164 127 ZM522 176 L522 191 L441 191 L441 176 ZM130 211 L130 226 L82 226 L82 211 ZM526 217 L526 232 L445 232 L445 217 ZM604 269 L604 284 L544 284 L544 269 ZM463 290 L463 305 L401 305 L401 290 ZM0 0 L0 360 L864 360 L864 53 L817 53 L817 38 L864 38 L864 0 Z"
      /></clipPath
      ><clipPath clipPathUnits="userSpaceOnUse" id="clipPath74"
      ><path d="M0 0 L882 0 L882 390 L0 390 L0 0 Z"
      /></clipPath
      ><clipPath clipPathUnits="userSpaceOnUse" id="clipPath75"
      ><path d="M472 34 L472 49 L410 49 L410 34 ZM238 56 L238 71 L178 71 L178 56 ZM317 94 L317 109 L255 109 L255 94 ZM736 127 L736 142 L650 142 L650 127 ZM526 178 L526 193 L443 193 L443 178 ZM742 193 L742 208 L656 208 L656 193 ZM165 199 L165 214 L105 214 L105 199 ZM224 234 L224 249 L162 249 L162 234 ZM719 235 L719 250 L640 250 L640 235 ZM443 247 L443 262 L395 262 L395 247 ZM508 281 L508 296 L427 296 L427 281 ZM439 333 L439 348 L391 348 L391 333 ZM258 341 L258 356 L156 356 L156 341 ZM622 369 L622 384 L544 384 L544 369 ZM0 0 L0 390 L644 390 L644 384 L716 384 L716 390 L882 390 L882 381 L817 381 L817 366 L882 366 L882 0 Z"
      /></clipPath
      ><clipPath clipPathUnits="userSpaceOnUse" id="clipPath76"
      ><path d="M0 0 L223 0 L223 366 L0 366 L0 0 Z"
      /></clipPath
      ><clipPath clipPathUnits="userSpaceOnUse" id="clipPath77"
      ><path d="M159 32 L159 47 L73 47 L73 32 ZM165 98 L165 113 L79 113 L79 98 ZM142 140 L142 155 L63 155 L63 140 ZM139 289 L139 304 L67 304 L67 289 ZM0 0 L0 274 L45 274 L45 289 L0 289 L0 366 L223 366 L223 0 Z"
      /></clipPath
      ><clipPath clipPathUnits="userSpaceOnUse" id="clipPath78"
      ><path d="M0 0 L625 0 L625 344 L0 344 L0 0 Z"
      /></clipPath
      ><clipPath clipPathUnits="userSpaceOnUse" id="clipPath79"
      ><path d="M181 17 L181 32 L98 32 L98 17 ZM397 32 L397 47 L311 47 L311 32 ZM374 74 L374 89 L295 89 L295 74 ZM98 86 L98 101 L50 101 L50 86 ZM163 120 L163 135 L82 135 L82 120 ZM94 172 L94 187 L46 187 L46 172 ZM546 205 L546 220 L472 220 L472 205 ZM277 208 L277 223 L199 223 L199 208 ZM371 223 L371 238 L299 238 L299 223 ZM97 260 L97 275 L9 275 L9 260 ZM0 0 L0 344 L96 344 L96 343 L177 343 L177 344 L625 344 L625 0 Z"
      /></clipPath
      ><clipPath clipPathUnits="userSpaceOnUse" id="clipPath80"
      ><path d="M0 0 L182 0 L182 104 L0 104 L0 0 Z"
      /></clipPath
      ><clipPath clipPathUnits="userSpaceOnUse" id="clipPath81"
      ><path d="M114 30 L114 45 L66 45 L66 30 ZM0 0 L0 104 L182 104 L182 0 Z"
      /></clipPath
      ><clipPath clipPathUnits="userSpaceOnUse" id="clipPath82"
      ><path d="M0 0 L104 0 L104 171 L0 171 L0 0 Z"
      /></clipPath
      ><clipPath clipPathUnits="userSpaceOnUse" id="clipPath83"
      ><path d="M0 0 L0 171 L104 171 L104 91 L54 91 L54 76 L104 76 L104 0 Z"
      /></clipPath
      ><clipPath clipPathUnits="userSpaceOnUse" id="clipPath84"
      ><path d="M0 0 L165 0 L165 155 L0 155 L0 0 Z"
      /></clipPath
      ><clipPath clipPathUnits="userSpaceOnUse" id="clipPath85"
      ><path d="M137 110 L137 125 L59 125 L59 110 ZM0 0 L0 22 L23 22 L23 37 L0 37 L0 155 L165 155 L165 140 L159 140 L159 125 L165 125 L165 0 Z"
      /></clipPath
      ><clipPath clipPathUnits="userSpaceOnUse" id="clipPath86"
      ><path d="M-78 -15 L156 -15 L156 30 L-78 30 L-78 -15 Z"
      /></clipPath
      ><clipPath clipPathUnits="userSpaceOnUse" id="clipPath87"
      ><path d="M-74 -15 L148 -15 L148 30 L-74 30 L-74 -15 Z"
      /></clipPath
      ><clipPath clipPathUnits="userSpaceOnUse" id="clipPath88"
      ><path d="M-48 -15 L96 -15 L96 30 L-48 30 L-48 -15 Z"
      /></clipPath
      ><clipPath clipPathUnits="userSpaceOnUse" id="clipPath89"
      ><path d="M-86 -15 L172 -15 L172 30 L-86 30 L-86 -15 Z"
      /></clipPath
      ><clipPath clipPathUnits="userSpaceOnUse" id="clipPath90"
      ><path d="M-62 -15 L124 -15 L124 30 L-62 30 L-62 -15 Z"
      /></clipPath
      ><clipPath clipPathUnits="userSpaceOnUse" id="clipPath91"
      ><path d="M-79 -15 L158 -15 L158 30 L-79 30 L-79 -15 Z"
      /></clipPath
      ><clipPath clipPathUnits="userSpaceOnUse" id="clipPath92"
      ><path d="M-60 -15 L120 -15 L120 30 L-60 30 L-60 -15 Z"
      /></clipPath
      ><clipPath clipPathUnits="userSpaceOnUse" id="clipPath93"
      ><path d="M-83 -15 L166 -15 L166 30 L-83 30 L-83 -15 Z"
      /></clipPath
      ><clipPath clipPathUnits="userSpaceOnUse" id="clipPath94"
      ><path d="M-88 -15 L176 -15 L176 30 L-88 30 L-88 -15 Z"
      /></clipPath
      ><clipPath clipPathUnits="userSpaceOnUse" id="clipPath95"
      ><path d="M-81 -15 L162 -15 L162 30 L-81 30 L-81 -15 Z"
      /></clipPath
      ><clipPath clipPathUnits="userSpaceOnUse" id="clipPath96"
      ><path d="M-72 -15 L144 -15 L144 30 L-72 30 L-72 -15 Z"
      /></clipPath
      ><clipPath clipPathUnits="userSpaceOnUse" id="clipPath97"
      ><path d="M-69 -15 L138 -15 L138 30 L-69 30 L-69 -15 Z"
      /></clipPath
      ><clipPath clipPathUnits="userSpaceOnUse" id="clipPath98"
      ><path d="M-102 -15 L204 -15 L204 30 L-102 30 L-102 -15 Z"
      /></clipPath
    ></defs
    ><g fill="white" text-rendering="geometricPrecision" fill-opacity="1" stroke-opacity="1" stroke="white"
    ><rect x="0" width="935" height="606" y="0" stroke="none"
    /></g
    ><g font-size="11px" transform="translate(48,305)" fill-opacity="1" fill="rgb(122,207,245)" text-rendering="geometricPrecision" image-rendering="optimizeQuality" font-family="sans-serif" stroke="rgb(122,207,245)" font-weight="bold" stroke-opacity="1"
    ><rect x="0" width="90" height="40" y="0" clip-path="url(#clipPath1)" stroke="none"
    /></g
    ><g fill-opacity="1" text-rendering="geometricPrecision" stroke="black" stroke-linecap="butt" transform="translate(48,305)" stroke-miterlimit="0" stroke-opacity="1" fill="black" font-weight="bold" font-family="sans-serif" stroke-linejoin="round" font-size="11px" image-rendering="optimizeQuality"
    ><rect fill="none" x="0" width="90" height="40" y="0" clip-path="url(#clipPath1)"
      /><line y2="15" fill="none" x1="0" clip-path="url(#clipPath1)" x2="90" y1="15"
    /></g
    ><g font-size="11px" transform="matrix(1,0,0,1,48,320)" fill-opacity="1" fill="black" text-rendering="geometricPrecision" image-rendering="optimizeQuality" font-family="sans-serif" stroke="black" stroke-opacity="1"
    ><text x="2" xml:space="preserve" y="14" clip-path="url(#clipPath2)" stroke="none"
      >-String descricao</text
    ></g
    ><g font-size="11px" transform="translate(48,305)" fill-opacity="1" fill="black" text-rendering="geometricPrecision" image-rendering="optimizeQuality" font-family="sans-serif" stroke="black" font-weight="bold" stroke-opacity="1"
    ><text x="16" xml:space="preserve" y="12" clip-path="url(#clipPath3)" stroke="none"
      >Plataforma</text
    ></g
    ><g font-size="11px" transform="translate(288,154)" fill-opacity="1" fill="rgb(122,207,245)" text-rendering="geometricPrecision" image-rendering="optimizeQuality" font-family="sans-serif" stroke="rgb(122,207,245)" font-weight="bold" stroke-opacity="1"
    ><rect x="0" width="121" height="68" y="0" clip-path="url(#clipPath4)" stroke="none"
    /></g
    ><g fill-opacity="1" text-rendering="geometricPrecision" stroke="black" stroke-linecap="butt" transform="translate(288,154)" stroke-miterlimit="0" stroke-opacity="1" fill="black" font-weight="bold" font-family="sans-serif" stroke-linejoin="round" font-size="11px" image-rendering="optimizeQuality"
    ><rect fill="none" x="0" width="121" height="68" y="0" clip-path="url(#clipPath4)"
      /><line y2="15" fill="none" x1="0" clip-path="url(#clipPath4)" x2="121" y1="15"
    /></g
    ><g font-size="11px" transform="matrix(1,0,0,1,288,169)" fill-opacity="1" fill="black" text-rendering="geometricPrecision" image-rendering="optimizeQuality" font-family="sans-serif" stroke="black" stroke-opacity="1"
    ><text x="2" xml:space="preserve" y="14" clip-path="url(#clipPath5)" stroke="none"
      >-String codigo</text
    ></g
    ><g font-size="11px" transform="matrix(1,0,0,1,288,169)" fill-opacity="1" fill="black" text-rendering="geometricPrecision" image-rendering="optimizeQuality" font-family="sans-serif" stroke="black" stroke-opacity="1"
    ><text x="2" xml:space="preserve" y="29" clip-path="url(#clipPath5)" stroke="none"
      >-String descBreve</text
    ></g
    ><g font-size="11px" transform="matrix(1,0,0,1,288,169)" fill-opacity="1" fill="black" text-rendering="geometricPrecision" image-rendering="optimizeQuality" font-family="sans-serif" stroke="black" stroke-opacity="1"
    ><text x="2" xml:space="preserve" y="44" clip-path="url(#clipPath5)" stroke="none"
      >-String descDetalhada</text
    ></g
    ><g font-size="11px" transform="translate(288,154)" fill-opacity="1" fill="black" text-rendering="geometricPrecision" image-rendering="optimizeQuality" font-family="sans-serif" stroke="black" font-weight="bold" stroke-opacity="1"
    ><text x="4" xml:space="preserve" y="12" clip-path="url(#clipPath6)" stroke="none"
      >CompetenciaTecnica</text
    ></g
    ><g font-size="11px" transform="translate(525,45)" fill-opacity="1" fill="rgb(122,207,245)" text-rendering="geometricPrecision" image-rendering="optimizeQuality" font-family="sans-serif" stroke="rgb(122,207,245)" font-weight="bold" stroke-opacity="1"
    ><rect x="0" width="116" height="68" y="0" clip-path="url(#clipPath7)" stroke="none"
    /></g
    ><g fill-opacity="1" text-rendering="geometricPrecision" stroke="black" stroke-linecap="butt" transform="translate(525,45)" stroke-miterlimit="0" stroke-opacity="1" fill="black" font-weight="bold" font-family="sans-serif" stroke-linejoin="round" font-size="11px" image-rendering="optimizeQuality"
    ><rect fill="none" x="0" width="116" height="68" y="0" clip-path="url(#clipPath7)"
      /><line y2="15" fill="none" x1="0" clip-path="url(#clipPath7)" x2="116" y1="15"
    /></g
    ><g font-size="11px" transform="matrix(1,0,0,1,525,60)" fill-opacity="1" fill="black" text-rendering="geometricPrecision" image-rendering="optimizeQuality" font-family="sans-serif" stroke="black" stroke-opacity="1"
    ><text x="2" xml:space="preserve" y="14" clip-path="url(#clipPath8)" stroke="none"
      >-String codigo</text
    ></g
    ><g font-size="11px" transform="matrix(1,0,0,1,525,60)" fill-opacity="1" fill="black" text-rendering="geometricPrecision" image-rendering="optimizeQuality" font-family="sans-serif" stroke="black" stroke-opacity="1"
    ><text x="2" xml:space="preserve" y="29" clip-path="url(#clipPath8)" stroke="none"
      >-String descBreve</text
    ></g
    ><g font-size="11px" transform="matrix(1,0,0,1,525,60)" fill-opacity="1" fill="black" text-rendering="geometricPrecision" image-rendering="optimizeQuality" font-family="sans-serif" stroke="black" stroke-opacity="1"
    ><text x="2" xml:space="preserve" y="44" clip-path="url(#clipPath8)" stroke="none"
      >-String descDetalhada</text
    ></g
    ><g font-size="11px" transform="translate(525,45)" fill-opacity="1" fill="black" text-rendering="geometricPrecision" image-rendering="optimizeQuality" font-family="sans-serif" stroke="black" font-weight="bold" stroke-opacity="1"
    ><text x="21" xml:space="preserve" y="12" clip-path="url(#clipPath9)" stroke="none"
      >AreaAtividade</text
    ></g
    ><g font-size="11px" transform="translate(542,193)" fill-opacity="1" fill="rgb(122,207,245)" text-rendering="geometricPrecision" image-rendering="optimizeQuality" font-family="sans-serif" stroke="rgb(122,207,245)" font-weight="bold" stroke-opacity="1"
    ><rect x="0" width="82" height="83" y="0" clip-path="url(#clipPath10)" stroke="none"
    /></g
    ><g fill-opacity="1" text-rendering="geometricPrecision" stroke="black" stroke-linecap="butt" transform="translate(542,193)" stroke-miterlimit="0" stroke-opacity="1" fill="black" font-weight="bold" font-family="sans-serif" stroke-linejoin="round" font-size="11px" image-rendering="optimizeQuality"
    ><rect fill="none" x="0" width="82" height="83" y="0" clip-path="url(#clipPath10)"
      /><line y2="15" fill="none" x1="0" clip-path="url(#clipPath10)" x2="82" y1="15"
    /></g
    ><g font-size="11px" transform="matrix(1,0,0,1,542,208)" fill-opacity="1" fill="black" text-rendering="geometricPrecision" image-rendering="optimizeQuality" font-family="sans-serif" stroke="black" stroke-opacity="1"
    ><text x="2" xml:space="preserve" y="14" clip-path="url(#clipPath11)" stroke="none"
      >-String nome</text
    ></g
    ><g font-size="11px" transform="matrix(1,0,0,1,542,208)" fill-opacity="1" fill="black" text-rendering="geometricPrecision" image-rendering="optimizeQuality" font-family="sans-serif" stroke="black" stroke-opacity="1"
    ><text x="2" xml:space="preserve" y="29" clip-path="url(#clipPath11)" stroke="none"
      >-String funcao</text
    ></g
    ><g font-size="11px" transform="matrix(1,0,0,1,542,208)" fill-opacity="1" fill="black" text-rendering="geometricPrecision" image-rendering="optimizeQuality" font-family="sans-serif" stroke="black" stroke-opacity="1"
    ><text x="2" xml:space="preserve" y="44" clip-path="url(#clipPath11)" stroke="none"
      >-String telefone</text
    ></g
    ><g font-size="11px" transform="matrix(1,0,0,1,542,208)" fill-opacity="1" fill="black" text-rendering="geometricPrecision" image-rendering="optimizeQuality" font-family="sans-serif" stroke="black" stroke-opacity="1"
    ><text x="2" xml:space="preserve" y="59" clip-path="url(#clipPath11)" stroke="none"
      >-String email</text
    ></g
    ><g font-size="11px" transform="translate(542,193)" fill-opacity="1" fill="black" text-rendering="geometricPrecision" image-rendering="optimizeQuality" font-family="sans-serif" stroke="black" font-weight="bold" stroke-opacity="1"
    ><text x="7" xml:space="preserve" y="12" clip-path="url(#clipPath12)" stroke="none"
      >Colaborador</text
    ></g
    ><g font-size="11px" transform="translate(307,276)" fill-opacity="1" fill="rgb(122,207,245)" text-rendering="geometricPrecision" image-rendering="optimizeQuality" font-family="sans-serif" stroke="rgb(122,207,245)" font-weight="bold" stroke-opacity="1"
    ><rect x="0" width="82" height="98" y="0" clip-path="url(#clipPath13)" stroke="none"
    /></g
    ><g fill-opacity="1" text-rendering="geometricPrecision" stroke="black" stroke-linecap="butt" transform="translate(307,276)" stroke-miterlimit="0" stroke-opacity="1" fill="black" font-weight="bold" font-family="sans-serif" stroke-linejoin="round" font-size="11px" image-rendering="optimizeQuality"
    ><rect fill="none" x="0" width="82" height="98" y="0" clip-path="url(#clipPath13)"
      /><line y2="15" fill="none" x1="0" clip-path="url(#clipPath13)" x2="82" y1="15"
    /></g
    ><g font-size="11px" transform="matrix(1,0,0,1,307,291)" fill-opacity="1" fill="black" text-rendering="geometricPrecision" image-rendering="optimizeQuality" font-family="sans-serif" stroke="black" stroke-opacity="1"
    ><text x="2" xml:space="preserve" y="14" clip-path="url(#clipPath14)" stroke="none"
      >-String nome</text
    ></g
    ><g font-size="11px" transform="matrix(1,0,0,1,307,291)" fill-opacity="1" fill="black" text-rendering="geometricPrecision" image-rendering="optimizeQuality" font-family="sans-serif" stroke="black" stroke-opacity="1"
    ><text x="2" xml:space="preserve" y="29" clip-path="url(#clipPath14)" stroke="none"
      >-String NIF</text
    ></g
    ><g font-size="11px" transform="matrix(1,0,0,1,307,291)" fill-opacity="1" fill="black" text-rendering="geometricPrecision" image-rendering="optimizeQuality" font-family="sans-serif" stroke="black" stroke-opacity="1"
    ><text x="2" xml:space="preserve" y="44" clip-path="url(#clipPath14)" stroke="none"
      >-String website</text
    ></g
    ><g font-size="11px" transform="matrix(1,0,0,1,307,291)" fill-opacity="1" fill="black" text-rendering="geometricPrecision" image-rendering="optimizeQuality" font-family="sans-serif" stroke="black" stroke-opacity="1"
    ><text x="2" xml:space="preserve" y="59" clip-path="url(#clipPath14)" stroke="none"
      >-String telefone</text
    ></g
    ><g font-size="11px" transform="matrix(1,0,0,1,307,291)" fill-opacity="1" fill="black" text-rendering="geometricPrecision" image-rendering="optimizeQuality" font-family="sans-serif" stroke="black" stroke-opacity="1"
    ><text x="2" xml:space="preserve" y="74" clip-path="url(#clipPath14)" stroke="none"
      >-String email</text
    ></g
    ><g font-size="11px" transform="translate(307,276)" fill-opacity="1" fill="black" text-rendering="geometricPrecision" image-rendering="optimizeQuality" font-family="sans-serif" stroke="black" font-weight="bold" stroke-opacity="1"
    ><text x="7" xml:space="preserve" y="12" clip-path="url(#clipPath12)" stroke="none"
      >Organizacao</text
    ></g
    ><g font-size="11px" transform="translate(309,422)" fill-opacity="1" fill="rgb(122,207,245)" text-rendering="geometricPrecision" image-rendering="optimizeQuality" font-family="sans-serif" stroke="rgb(122,207,245)" font-weight="bold" stroke-opacity="1"
    ><rect x="0" width="80" height="40" y="0" clip-path="url(#clipPath15)" stroke="none"
    /></g
    ><g fill-opacity="1" text-rendering="geometricPrecision" stroke="black" stroke-linecap="butt" transform="translate(309,422)" stroke-miterlimit="0" stroke-opacity="1" fill="black" font-weight="bold" font-family="sans-serif" stroke-linejoin="round" font-size="11px" image-rendering="optimizeQuality"
    ><rect fill="none" x="0" width="80" height="40" y="0" clip-path="url(#clipPath15)"
      /><line y2="15" fill="none" x1="0" clip-path="url(#clipPath15)" x2="80" y1="15"
    /></g
    ><g font-size="11px" transform="translate(309,422)" fill-opacity="1" fill="black" text-rendering="geometricPrecision" image-rendering="optimizeQuality" font-family="sans-serif" stroke="black" font-weight="bold" stroke-opacity="1"
    ><text x="12" xml:space="preserve" y="12" clip-path="url(#clipPath17)" stroke="none"
      >Freelancer</text
    ></g
    ><g font-size="11px" transform="translate(304,510)" fill-opacity="1" fill="rgb(122,207,245)" text-rendering="geometricPrecision" image-rendering="optimizeQuality" font-family="sans-serif" stroke="rgb(122,207,245)" font-weight="bold" stroke-opacity="1"
    ><rect x="0" width="88" height="40" y="0" clip-path="url(#clipPath18)" stroke="none"
    /></g
    ><g fill-opacity="1" text-rendering="geometricPrecision" stroke="black" stroke-linecap="butt" transform="translate(304,510)" stroke-miterlimit="0" stroke-opacity="1" fill="black" font-weight="bold" font-family="sans-serif" stroke-linejoin="round" font-size="11px" image-rendering="optimizeQuality"
    ><rect fill="none" x="0" width="88" height="40" y="0" clip-path="url(#clipPath18)"
      /><line y2="15" fill="none" x1="0" clip-path="url(#clipPath18)" x2="88" y1="15"
    /></g
    ><g font-size="11px" transform="translate(304,510)" fill-opacity="1" fill="black" text-rendering="geometricPrecision" image-rendering="optimizeQuality" font-family="sans-serif" stroke="black" font-weight="bold" stroke-opacity="1"
    ><text x="4" xml:space="preserve" y="12" clip-path="url(#clipPath20)" stroke="none"
      >Administrativo</text
    ></g
    ><g font-size="11px" transform="translate(609,482)" fill-opacity="1" fill="rgb(122,207,245)" text-rendering="geometricPrecision" image-rendering="optimizeQuality" font-family="sans-serif" stroke="rgb(122,207,245)" font-weight="bold" stroke-opacity="1"
    ><rect x="0" width="90" height="68" y="0" clip-path="url(#clipPath21)" stroke="none"
    /></g
    ><g fill-opacity="1" text-rendering="geometricPrecision" stroke="black" stroke-linecap="butt" transform="translate(609,482)" stroke-miterlimit="0" stroke-opacity="1" fill="black" font-weight="bold" font-family="sans-serif" stroke-linejoin="round" font-size="11px" image-rendering="optimizeQuality"
    ><rect fill="none" x="0" width="90" height="68" y="0" clip-path="url(#clipPath21)"
      /><line y2="15" fill="none" x1="0" clip-path="url(#clipPath21)" x2="90" y1="15"
    /></g
    ><g font-size="11px" transform="matrix(1,0,0,1,609,497)" fill-opacity="1" fill="black" text-rendering="geometricPrecision" image-rendering="optimizeQuality" font-family="sans-serif" stroke="black" stroke-opacity="1"
    ><text x="2" xml:space="preserve" y="14" clip-path="url(#clipPath22)" stroke="none"
      >-String nome</text
    ></g
    ><g font-size="11px" transform="matrix(1,0,0,1,609,497)" fill-opacity="1" fill="black" text-rendering="geometricPrecision" image-rendering="optimizeQuality" font-family="sans-serif" stroke="black" stroke-opacity="1"
    ><text x="2" xml:space="preserve" y="29" clip-path="url(#clipPath22)" stroke="none"
      >-String email</text
    ></g
    ><g font-size="11px" transform="matrix(1,0,0,1,609,497)" fill-opacity="1" fill="black" text-rendering="geometricPrecision" image-rendering="optimizeQuality" font-family="sans-serif" stroke="black" stroke-opacity="1"
    ><text x="2" xml:space="preserve" y="44" clip-path="url(#clipPath22)" stroke="none"
      >-String password</text
    ></g
    ><g font-size="11px" transform="translate(609,482)" fill-opacity="1" fill="black" text-rendering="geometricPrecision" image-rendering="optimizeQuality" font-family="sans-serif" stroke="black" font-weight="bold" stroke-opacity="1"
    ><text x="19" xml:space="preserve" y="12" clip-path="url(#clipPath3)" stroke="none"
      >Utilizador</text
    ></g
    ><g font-size="11px" transform="translate(499,385)" fill-opacity="1" fill="rgb(122,207,245)" text-rendering="geometricPrecision" image-rendering="optimizeQuality" font-family="sans-serif" stroke="rgb(122,207,245)" font-weight="bold" stroke-opacity="1"
    ><rect x="0" width="94" height="68" y="0" clip-path="url(#clipPath23)" stroke="none"
    /></g
    ><g fill-opacity="1" text-rendering="geometricPrecision" stroke="black" stroke-linecap="butt" transform="translate(499,385)" stroke-miterlimit="0" stroke-opacity="1" fill="black" font-weight="bold" font-family="sans-serif" stroke-linejoin="round" font-size="11px" image-rendering="optimizeQuality"
    ><rect fill="none" x="0" width="94" height="68" y="0" clip-path="url(#clipPath23)"
      /><line y2="15" fill="none" x1="0" clip-path="url(#clipPath23)" x2="94" y1="15"
    /></g
    ><g font-size="11px" transform="matrix(1,0,0,1,499,400)" fill-opacity="1" fill="black" text-rendering="geometricPrecision" image-rendering="optimizeQuality" font-family="sans-serif" stroke="black" stroke-opacity="1"
    ><text x="2" xml:space="preserve" y="14" clip-path="url(#clipPath24)" stroke="none"
      >-String local</text
    ></g
    ><g font-size="11px" transform="matrix(1,0,0,1,499,400)" fill-opacity="1" fill="black" text-rendering="geometricPrecision" image-rendering="optimizeQuality" font-family="sans-serif" stroke="black" stroke-opacity="1"
    ><text x="2" xml:space="preserve" y="29" clip-path="url(#clipPath24)" stroke="none"
      >-String codPostal</text
    ></g
    ><g font-size="11px" transform="matrix(1,0,0,1,499,400)" fill-opacity="1" fill="black" text-rendering="geometricPrecision" image-rendering="optimizeQuality" font-family="sans-serif" stroke="black" stroke-opacity="1"
    ><text x="2" xml:space="preserve" y="44" clip-path="url(#clipPath24)" stroke="none"
      >-String localidade</text
    ></g
    ><g font-size="11px" transform="translate(499,385)" fill-opacity="1" fill="black" text-rendering="geometricPrecision" image-rendering="optimizeQuality" font-family="sans-serif" stroke="black" font-weight="bold" stroke-opacity="1"
    ><text x="4" xml:space="preserve" y="12" clip-path="url(#clipPath25)" stroke="none"
      >EnderecoPostal</text
    ></g
    ><g font-size="11px" transform="translate(770,194)" fill-opacity="1" fill="rgb(122,207,245)" text-rendering="geometricPrecision" image-rendering="optimizeQuality" font-family="sans-serif" stroke="rgb(122,207,245)" font-weight="bold" stroke-opacity="1"
    ><rect x="0" width="146" height="113" y="0" clip-path="url(#clipPath26)" stroke="none"
    /></g
    ><g fill-opacity="1" text-rendering="geometricPrecision" stroke="black" stroke-linecap="butt" transform="translate(770,194)" stroke-miterlimit="0" stroke-opacity="1" fill="black" font-weight="bold" font-family="sans-serif" stroke-linejoin="round" font-size="11px" image-rendering="optimizeQuality"
    ><rect fill="none" x="0" width="146" height="113" y="0" clip-path="url(#clipPath26)"
      /><line y2="15" fill="none" x1="0" clip-path="url(#clipPath26)" x2="146" y1="15"
    /></g
    ><g font-size="11px" transform="matrix(1,0,0,1,770,209)" fill-opacity="1" fill="black" text-rendering="geometricPrecision" image-rendering="optimizeQuality" font-family="sans-serif" stroke="black" stroke-opacity="1"
    ><text x="2" xml:space="preserve" y="14" clip-path="url(#clipPath27)" stroke="none"
      >-String refUnica</text
    ></g
    ><g font-size="11px" transform="matrix(1,0,0,1,770,209)" fill-opacity="1" fill="black" text-rendering="geometricPrecision" image-rendering="optimizeQuality" font-family="sans-serif" stroke="black" stroke-opacity="1"
    ><text x="2" xml:space="preserve" y="29" clip-path="url(#clipPath27)" stroke="none"
      >-String designacao</text
    ></g
    ><g font-size="11px" transform="matrix(1,0,0,1,770,209)" fill-opacity="1" fill="black" text-rendering="geometricPrecision" image-rendering="optimizeQuality" font-family="sans-serif" stroke="black" stroke-opacity="1"
    ><text x="2" xml:space="preserve" y="44" clip-path="url(#clipPath27)" stroke="none"
      >-String descInformal</text
    ></g
    ><g font-size="11px" transform="matrix(1,0,0,1,770,209)" fill-opacity="1" fill="black" text-rendering="geometricPrecision" image-rendering="optimizeQuality" font-family="sans-serif" stroke="black" stroke-opacity="1"
    ><text x="2" xml:space="preserve" y="59" clip-path="url(#clipPath27)" stroke="none"
      >-String descCaracterTecnico</text
    ></g
    ><g font-size="11px" transform="matrix(1,0,0,1,770,209)" fill-opacity="1" fill="black" text-rendering="geometricPrecision" image-rendering="optimizeQuality" font-family="sans-serif" stroke="black" stroke-opacity="1"
    ><text x="2" xml:space="preserve" y="74" clip-path="url(#clipPath27)" stroke="none"
      >-Double duracao</text
    ></g
    ><g font-size="11px" transform="matrix(1,0,0,1,770,209)" fill-opacity="1" fill="black" text-rendering="geometricPrecision" image-rendering="optimizeQuality" font-family="sans-serif" stroke="black" stroke-opacity="1"
    ><text x="2" xml:space="preserve" y="89" clip-path="url(#clipPath27)" stroke="none"
      >-Double custo</text
    ></g
    ><g font-size="11px" transform="translate(770,194)" fill-opacity="1" fill="black" text-rendering="geometricPrecision" image-rendering="optimizeQuality" font-family="sans-serif" stroke="black" font-weight="bold" stroke-opacity="1"
    ><text x="55" xml:space="preserve" y="12" clip-path="url(#clipPath28)" stroke="none"
      >Tarefa</text
    ></g
    ><g font-size="11px" transform="translate(761,376)" fill-opacity="1" fill="rgb(122,207,245)" text-rendering="geometricPrecision" image-rendering="optimizeQuality" font-family="sans-serif" stroke="rgb(122,207,245)" font-weight="bold" stroke-opacity="1"
    ><rect x="0" width="109" height="86" y="0" clip-path="url(#clipPath29)" stroke="none"
    /></g
    ><g fill-opacity="1" text-rendering="geometricPrecision" stroke="black" stroke-linecap="butt" transform="translate(761,376)" stroke-miterlimit="0" stroke-opacity="1" fill="black" font-weight="bold" font-family="sans-serif" stroke-linejoin="round" font-size="11px" image-rendering="optimizeQuality"
    ><rect fill="none" x="0" width="109" height="86" y="0" clip-path="url(#clipPath29)"
      /><line y2="15" fill="none" x1="0" clip-path="url(#clipPath29)" x2="109" y1="15"
    /></g
    ><g font-size="11px" transform="matrix(1,0,0,1,761,391)" fill-opacity="1" fill="black" text-rendering="geometricPrecision" image-rendering="optimizeQuality" font-family="sans-serif" stroke="black" stroke-opacity="1"
    ><text x="2" xml:space="preserve" y="14" clip-path="url(#clipPath30)" stroke="none"
      >-String descricao</text
    ></g
    ><g font-size="11px" transform="translate(761,376)" fill-opacity="1" fill="black" text-rendering="geometricPrecision" image-rendering="optimizeQuality" font-family="sans-serif" stroke="black" font-weight="bold" stroke-opacity="1"
    ><text x="29" xml:space="preserve" y="12" clip-path="url(#clipPath31)" stroke="none"
      >Categoria</text
    ></g
    ><g font-size="11px" transform="translate(469,293)" fill-opacity="1" fill="rgb(122,207,245)" text-rendering="geometricPrecision" image-rendering="optimizeQuality" font-family="sans-serif" stroke="rgb(122,207,245)" font-weight="bold" stroke-opacity="1"
    ><rect x="0" width="80" height="40" y="0" clip-path="url(#clipPath15)" stroke="none"
    /></g
    ><g fill-opacity="1" text-rendering="geometricPrecision" stroke="black" stroke-linecap="butt" transform="translate(469,293)" stroke-miterlimit="0" stroke-opacity="1" fill="black" font-weight="bold" font-family="sans-serif" stroke-linejoin="round" font-size="11px" image-rendering="optimizeQuality"
    ><rect fill="none" x="0" width="80" height="40" y="0" clip-path="url(#clipPath15)"
      /><line y2="15" fill="none" x1="0" clip-path="url(#clipPath15)" x2="80" y1="15"
    /></g
    ><g font-size="11px" transform="translate(469,293)" fill-opacity="1" fill="black" text-rendering="geometricPrecision" image-rendering="optimizeQuality" font-family="sans-serif" stroke="black" font-weight="bold" stroke-opacity="1"
    ><text x="21" xml:space="preserve" y="12" clip-path="url(#clipPath17)" stroke="none"
      >Gestor</text
    ></g
    ><g font-size="11px" transform="translate(64,288)" fill-opacity="1" fill="black" text-rendering="geometricPrecision" image-rendering="optimizeQuality" font-family="sans-serif" stroke="black" stroke-opacity="1"
    ><text x="10" xml:space="preserve" y="12" clip-path="url(#clipPath33)" stroke="none"
      >1</text
    ></g
    ><g font-size="11px" transform="translate(498,84)" fill-opacity="1" fill="black" text-rendering="geometricPrecision" image-rendering="optimizeQuality" font-family="sans-serif" stroke="black" stroke-opacity="1"
    ><text x="10" xml:space="preserve" y="12" clip-path="url(#clipPath35)" stroke="none"
      >*</text
    ></g
    ><g font-size="11px" transform="translate(321,257)" fill-opacity="1" fill="black" text-rendering="geometricPrecision" image-rendering="optimizeQuality" font-family="sans-serif" stroke="black" stroke-opacity="1"
    ><text x="10" xml:space="preserve" y="12" clip-path="url(#clipPath33)" stroke="none"
      >1</text
    ></g
    ><g font-size="11px" transform="translate(507,235)" fill-opacity="1" fill="black" text-rendering="geometricPrecision" image-rendering="optimizeQuality" font-family="sans-serif" stroke="black" stroke-opacity="1"
    ><text x="10" xml:space="preserve" y="12" clip-path="url(#clipPath37)" stroke="none"
      >1..*</text
    ></g
    ><g font-size="11px" transform="translate(826,306)" fill-opacity="1" fill="black" text-rendering="geometricPrecision" image-rendering="optimizeQuality" font-family="sans-serif" stroke="black" stroke-opacity="1"
    ><text x="10" xml:space="preserve" y="12" clip-path="url(#clipPath35)" stroke="none"
      >*</text
    ></g
    ><g font-size="11px" transform="translate(799,357)" fill-opacity="1" fill="black" text-rendering="geometricPrecision" image-rendering="optimizeQuality" font-family="sans-serif" stroke="black" stroke-opacity="1"
    ><text x="10" xml:space="preserve" y="12" clip-path="url(#clipPath33)" stroke="none"
      >1</text
    ></g
    ><g font-size="11px" transform="translate(339,549)" fill-opacity="1" fill="black" text-rendering="geometricPrecision" image-rendering="optimizeQuality" font-family="sans-serif" stroke="black" stroke-opacity="1"
    ><text x="10" xml:space="preserve" y="12" clip-path="url(#clipPath33)" stroke="none"
      >1</text
    ></g
    ><g font-size="11px" transform="translate(496,44)" fill-opacity="1" fill="black" text-rendering="geometricPrecision" image-rendering="optimizeQuality" font-family="sans-serif" stroke="black" stroke-opacity="1"
    ><text x="10" xml:space="preserve" y="12" clip-path="url(#clipPath35)" stroke="none"
      >*</text
    ></g
    ><g font-size="11px" transform="translate(388,462)" fill-opacity="1" fill="black" text-rendering="geometricPrecision" image-rendering="optimizeQuality" font-family="sans-serif" stroke="black" stroke-opacity="1"
    ><text x="10" xml:space="preserve" y="12" clip-path="url(#clipPath39)" stroke="none"
      >0..1</text
    ></g
    ><g font-size="11px" transform="translate(580,492)" fill-opacity="1" fill="black" text-rendering="geometricPrecision" image-rendering="optimizeQuality" font-family="sans-serif" stroke="black" stroke-opacity="1"
    ><text x="10" xml:space="preserve" y="12" clip-path="url(#clipPath33)" stroke="none"
      >1</text
    ></g
    ><g font-size="11px" transform="translate(624,223)" fill-opacity="1" fill="black" text-rendering="geometricPrecision" image-rendering="optimizeQuality" font-family="sans-serif" stroke="black" stroke-opacity="1"
    ><text x="10" xml:space="preserve" y="12" clip-path="url(#clipPath39)" stroke="none"
      >0..1</text
    ></g
    ><g font-size="11px" transform="translate(625,465)" fill-opacity="1" fill="black" text-rendering="geometricPrecision" image-rendering="optimizeQuality" font-family="sans-serif" stroke="black" stroke-opacity="1"
    ><text x="10" xml:space="preserve" y="12" clip-path="url(#clipPath33)" stroke="none"
      >1</text
    ></g
    ><g font-size="11px" transform="translate(446,272)" fill-opacity="1" fill="black" text-rendering="geometricPrecision" image-rendering="optimizeQuality" font-family="sans-serif" stroke="black" stroke-opacity="1"
    ><text x="10" xml:space="preserve" y="12" clip-path="url(#clipPath39)" stroke="none"
      >0..1</text
    ></g
    ><g font-size="11px" transform="translate(511,274)" fill-opacity="1" fill="black" text-rendering="geometricPrecision" image-rendering="optimizeQuality" font-family="sans-serif" stroke="black" stroke-opacity="1"
    ><text x="10" xml:space="preserve" y="12" clip-path="url(#clipPath33)" stroke="none"
      >1</text
    ></g
    ><g font-size="11px" transform="translate(136,340)" fill-opacity="1" fill="black" text-rendering="geometricPrecision" image-rendering="optimizeQuality" font-family="sans-serif" stroke="black" stroke-opacity="1"
    ><text x="10" xml:space="preserve" y="12" clip-path="url(#clipPath33)" stroke="none"
      >1</text
    ></g
    ><g font-size="11px" transform="translate(280,444)" fill-opacity="1" fill="black" text-rendering="geometricPrecision" image-rendering="optimizeQuality" font-family="sans-serif" stroke="black" stroke-opacity="1"
    ><text x="10" xml:space="preserve" y="12" clip-path="url(#clipPath35)" stroke="none"
      >*</text
    ></g
    ><g font-size="11px" transform="translate(96,347)" fill-opacity="1" fill="black" text-rendering="geometricPrecision" image-rendering="optimizeQuality" font-family="sans-serif" stroke="black" stroke-opacity="1"
    ><text x="10" xml:space="preserve" y="12" clip-path="url(#clipPath33)" stroke="none"
      >1</text
    ></g
    ><g font-size="11px" transform="translate(275,534)" fill-opacity="1" fill="black" text-rendering="geometricPrecision" image-rendering="optimizeQuality" font-family="sans-serif" stroke="black" stroke-opacity="1"
    ><text x="10" xml:space="preserve" y="12" clip-path="url(#clipPath35)" stroke="none"
      >*</text
    ></g
    ><g font-size="11px" transform="translate(94,288)" fill-opacity="1" fill="black" text-rendering="geometricPrecision" image-rendering="optimizeQuality" font-family="sans-serif" stroke="black" stroke-opacity="1"
    ><text x="10" xml:space="preserve" y="12" clip-path="url(#clipPath33)" stroke="none"
      >1</text
    ></g
    ><g font-size="11px" transform="translate(278,223)" fill-opacity="1" fill="black" text-rendering="geometricPrecision" image-rendering="optimizeQuality" font-family="sans-serif" stroke="black" stroke-opacity="1"
    ><text x="10" xml:space="preserve" y="12" clip-path="url(#clipPath35)" stroke="none"
      >*</text
    ></g
    ><g font-size="11px" transform="translate(361,372)" fill-opacity="1" fill="black" text-rendering="geometricPrecision" image-rendering="optimizeQuality" font-family="sans-serif" stroke="black" stroke-opacity="1"
    ><text x="10" xml:space="preserve" y="12" clip-path="url(#clipPath33)" stroke="none"
      >1</text
    ></g
    ><g font-size="11px" transform="translate(468,405)" fill-opacity="1" fill="black" text-rendering="geometricPrecision" image-rendering="optimizeQuality" font-family="sans-serif" stroke="black" stroke-opacity="1"
    ><text x="10" xml:space="preserve" y="12" clip-path="url(#clipPath33)" stroke="none"
      >1</text
    ></g
    ><g font-size="11px" transform="translate(63,345)" fill-opacity="1" fill="black" text-rendering="geometricPrecision" image-rendering="optimizeQuality" font-family="sans-serif" stroke="black" stroke-opacity="1"
    ><text x="10" xml:space="preserve" y="12" clip-path="url(#clipPath33)" stroke="none"
      >1</text
    ></g
    ><g font-size="11px" transform="translate(807,462)" fill-opacity="1" fill="black" text-rendering="geometricPrecision" image-rendering="optimizeQuality" font-family="sans-serif" stroke="black" stroke-opacity="1"
    ><text x="10" xml:space="preserve" y="12" clip-path="url(#clipPath35)" stroke="none"
      >*</text
    ></g
    ><g font-size="11px" transform="translate(823,462)" fill-opacity="1" fill="black" text-rendering="geometricPrecision" image-rendering="optimizeQuality" font-family="sans-serif" stroke="black" stroke-opacity="1"
    ><text x="10" xml:space="preserve" y="12" clip-path="url(#clipPath35)" stroke="none"
      >*</text
    ></g
    ><g font-size="11px" transform="translate(138,311)" fill-opacity="1" fill="black" text-rendering="geometricPrecision" image-rendering="optimizeQuality" font-family="sans-serif" stroke="black" stroke-opacity="1"
    ><text x="10" xml:space="preserve" y="12" clip-path="url(#clipPath33)" stroke="none"
      >1</text
    ></g
    ><g font-size="11px" transform="translate(280,327)" fill-opacity="1" fill="black" text-rendering="geometricPrecision" image-rendering="optimizeQuality" font-family="sans-serif" stroke="black" stroke-opacity="1"
    ><text x="10" xml:space="preserve" y="12" clip-path="url(#clipPath35)" stroke="none"
      >*</text
    ></g
    ><g font-size="11px" transform="translate(409,147)" fill-opacity="1" fill="black" text-rendering="geometricPrecision" image-rendering="optimizeQuality" font-family="sans-serif" stroke="black" stroke-opacity="1"
    ><text x="10" xml:space="preserve" y="12" clip-path="url(#clipPath35)" stroke="none"
      >*</text
    ></g
    ><g font-size="11px" transform="translate(588,113)" fill-opacity="1" fill="black" text-rendering="geometricPrecision" image-rendering="optimizeQuality" font-family="sans-serif" stroke="black" stroke-opacity="1"
    ><text x="10" xml:space="preserve" y="12" clip-path="url(#clipPath33)" stroke="none"
      >1</text
    ></g
    ><g font-size="11px" transform="translate(758,355)" fill-opacity="1" fill="black" text-rendering="geometricPrecision" image-rendering="optimizeQuality" font-family="sans-serif" stroke="black" stroke-opacity="1"
    ><text x="10" xml:space="preserve" y="12" clip-path="url(#clipPath35)" stroke="none"
      >*</text
    ></g
    ><g font-size="11px" transform="translate(624,205)" fill-opacity="1" fill="black" text-rendering="geometricPrecision" image-rendering="optimizeQuality" font-family="sans-serif" stroke="black" stroke-opacity="1"
    ><text x="10" xml:space="preserve" y="12" clip-path="url(#clipPath33)" stroke="none"
      >1</text
    ></g
    ><g font-size="11px" transform="translate(741,225)" fill-opacity="1" fill="black" text-rendering="geometricPrecision" image-rendering="optimizeQuality" font-family="sans-serif" stroke="black" stroke-opacity="1"
    ><text x="10" xml:space="preserve" y="12" clip-path="url(#clipPath35)" stroke="none"
      >*</text
    ></g
    ><g font-size="11px" transform="translate(402,179)" fill-opacity="1" fill="black" text-rendering="geometricPrecision" image-rendering="optimizeQuality" font-family="sans-serif" stroke="black" stroke-opacity="1"
    ><text x="10" xml:space="preserve" y="12" clip-path="url(#clipPath37)" stroke="none"
      >1..*</text
    ></g
    ><g font-size="11px" transform="translate(876,405)" fill-opacity="1" fill="black" text-rendering="geometricPrecision" image-rendering="optimizeQuality" font-family="sans-serif" stroke="black" stroke-opacity="1"
    ><text x="10" xml:space="preserve" y="12" clip-path="url(#clipPath35)" stroke="none"
      >*</text
    ></g
    ><g font-size="11px" transform="translate(637,94)" fill-opacity="1" fill="black" text-rendering="geometricPrecision" image-rendering="optimizeQuality" font-family="sans-serif" stroke="black" stroke-opacity="1"
    ><text x="10" xml:space="preserve" y="12" clip-path="url(#clipPath33)" stroke="none"
      >1</text
    ></g
    ><g font-size="11px" transform="translate(392,515)" fill-opacity="1" fill="black" text-rendering="geometricPrecision" image-rendering="optimizeQuality" font-family="sans-serif" stroke="black" stroke-opacity="1"
    ><text x="10" xml:space="preserve" y="12" clip-path="url(#clipPath39)" stroke="none"
      >0..1</text
    ></g
    ><g font-size="11px" transform="translate(580,531)" fill-opacity="1" fill="black" text-rendering="geometricPrecision" image-rendering="optimizeQuality" font-family="sans-serif" stroke="black" stroke-opacity="1"
    ><text x="10" xml:space="preserve" y="12" clip-path="url(#clipPath33)" stroke="none"
      >1</text
    ></g
    ><g font-size="11px" transform="translate(387,304)" fill-opacity="1" fill="black" text-rendering="geometricPrecision" image-rendering="optimizeQuality" font-family="sans-serif" stroke="black" stroke-opacity="1"
    ><text x="10" xml:space="preserve" y="12" clip-path="url(#clipPath33)" stroke="none"
      >1</text
    ></g
    ><g font-size="11px" transform="translate(366,549)" fill-opacity="1" fill="black" text-rendering="geometricPrecision" image-rendering="optimizeQuality" font-family="sans-serif" stroke="black" stroke-opacity="1"
    ><text x="10" xml:space="preserve" y="12" clip-path="url(#clipPath33)" stroke="none"
      >1</text
    ></g
    ><g font-size="11px" transform="translate(555,311)" fill-opacity="1" fill="black" text-rendering="geometricPrecision" image-rendering="optimizeQuality" font-family="sans-serif" stroke="black" stroke-opacity="1"
    ><text x="10" xml:space="preserve" y="12" clip-path="url(#clipPath33)" stroke="none"
      >1</text
    ></g
    ><g font-size="11px" transform="translate(610,275)" fill-opacity="1" fill="black" text-rendering="geometricPrecision" image-rendering="optimizeQuality" font-family="sans-serif" stroke="black" stroke-opacity="1"
    ><text x="10" xml:space="preserve" y="12" clip-path="url(#clipPath35)" stroke="none"
      >*</text
    ></g
    ><g font-size="11px" transform="translate(315,549)" fill-opacity="1" fill="black" text-rendering="geometricPrecision" image-rendering="optimizeQuality" font-family="sans-serif" stroke="black" stroke-opacity="1"
    ><text x="10" xml:space="preserve" y="12" clip-path="url(#clipPath33)" stroke="none"
      >1</text
    ></g
    ><g font-size="11px" transform="translate(259,187)" fill-opacity="1" fill="black" text-rendering="geometricPrecision" image-rendering="optimizeQuality" font-family="sans-serif" stroke="black" stroke-opacity="1"
    ><text x="10" xml:space="preserve" y="12" clip-path="url(#clipPath35)" stroke="none"
      >*</text
    ></g
    ><g font-size="11px" transform="translate(35,286)" fill-opacity="1" fill="black" text-rendering="geometricPrecision" image-rendering="optimizeQuality" font-family="sans-serif" stroke="black" stroke-opacity="1"
    ><text x="10" xml:space="preserve" y="12" clip-path="url(#clipPath33)" stroke="none"
      >1</text
    ></g
    ><g font-size="11px" transform="translate(821,180)" fill-opacity="1" fill="black" text-rendering="geometricPrecision" image-rendering="optimizeQuality" font-family="sans-serif" stroke="black" stroke-opacity="1"
    ><text x="10" xml:space="preserve" y="12" clip-path="url(#clipPath35)" stroke="none"
      >*</text
    ></g
    ><g font-size="11px" transform="translate(443,320)" fill-opacity="1" fill="black" text-rendering="geometricPrecision" image-rendering="optimizeQuality" font-family="sans-serif" stroke="black" stroke-opacity="1"
    ><text x="10" xml:space="preserve" y="12" clip-path="url(#clipPath33)" stroke="none"
      >1</text
    ></g
    ><g stroke-linecap="butt" font-size="11px" transform="translate(89,278)" fill-opacity="1" fill="black" text-rendering="geometricPrecision" image-rendering="optimizeQuality" font-family="sans-serif" stroke-linejoin="round" stroke="black" stroke-opacity="1"
    ><line y2="50" fill="none" x1="50" clip-path="url(#clipPath41)" x2="217" y1="50"
    /></g
    ><g stroke-linecap="butt" font-size="11px" transform="translate(81,172)" fill-opacity="1" fill="black" text-rendering="geometricPrecision" image-rendering="optimizeQuality" font-family="sans-serif" stroke-linejoin="round" stroke="black" stroke-opacity="1"
    ><line y2="50" fill="none" x1="50" clip-path="url(#clipPath43)" x2="50" y1="132"
      /><line y2="50" fill="none" x1="50" clip-path="url(#clipPath43)" x2="206" y1="50"
    /></g
    ><g stroke-linecap="butt" font-size="11px" transform="translate(43,35)" fill-opacity="1" fill="black" text-rendering="geometricPrecision" image-rendering="optimizeQuality" font-family="sans-serif" stroke-linejoin="round" stroke="black" stroke-opacity="1"
    ><line y2="50" fill="none" x1="50" clip-path="url(#clipPath45)" x2="50" y1="269"
      /><line y2="50" fill="none" x1="50" clip-path="url(#clipPath45)" x2="481" y1="50"
    /></g
    ><g stroke-linecap="butt" font-size="11px" transform="translate(81,296)" fill-opacity="1" fill="black" text-rendering="geometricPrecision" image-rendering="optimizeQuality" font-family="sans-serif" stroke-linejoin="round" stroke="black" stroke-opacity="1"
    ><line y2="146" fill="none" x1="50" clip-path="url(#clipPath47)" x2="50" y1="50"
      /><line y2="146" fill="none" x1="50" clip-path="url(#clipPath47)" x2="227" y1="146"
    /></g
    ><g stroke-linecap="butt" font-size="11px" transform="translate(43,296)" fill-opacity="1" fill="black" text-rendering="geometricPrecision" image-rendering="optimizeQuality" font-family="sans-serif" stroke-linejoin="round" stroke="black" stroke-opacity="1"
    ><line y2="234" fill="none" x1="50" clip-path="url(#clipPath49)" x2="50" y1="50"
      /><line y2="234" fill="none" x1="50" clip-path="url(#clipPath49)" x2="260" y1="234"
    /></g
    ><g stroke-linecap="butt" font-size="11px" transform="translate(343,482)" fill-opacity="1" fill="black" text-rendering="geometricPrecision" image-rendering="optimizeQuality" font-family="sans-serif" stroke-linejoin="round" stroke="black" stroke-opacity="1"
    ><line y2="50" fill="none" x1="50" clip-path="url(#clipPath51)" x2="265" y1="50"
    /></g
    ><g stroke-linecap="butt" font-size="11px" transform="translate(339,413)" fill-opacity="1" fill="black" text-rendering="geometricPrecision" image-rendering="optimizeQuality" font-family="sans-serif" stroke-linejoin="round" stroke="black" stroke-opacity="1"
    ><line y2="80" fill="none" x1="50" clip-path="url(#clipPath53)" x2="50" y1="50"
      /><line y2="80" fill="none" x1="50" clip-path="url(#clipPath53)" x2="269" y1="80"
    /></g
    ><g stroke-linecap="butt" font-size="11px" transform="translate(575,190)" fill-opacity="1" fill="black" text-rendering="geometricPrecision" image-rendering="optimizeQuality" font-family="sans-serif" stroke-linejoin="round" stroke="black" stroke-opacity="1"
    ><line y2="50" fill="none" x1="50" clip-path="url(#clipPath55)" x2="79" y1="50"
      /><line y2="291" fill="none" x1="79" clip-path="url(#clipPath55)" x2="79" y1="50"
    /></g
    ><g stroke-linecap="butt" font-size="11px" transform="translate(434,225)" fill-opacity="1" fill="black" text-rendering="geometricPrecision" image-rendering="optimizeQuality" font-family="sans-serif" stroke-linejoin="round" stroke="black" stroke-opacity="1"
    ><line y2="50" fill="none" x1="50" clip-path="url(#clipPath57)" x2="50" y1="67"
      /><line y2="50" fill="none" x1="50" clip-path="url(#clipPath57)" x2="107" y1="50"
    /></g
    ><g stroke-linecap="butt" font-size="11px" transform="translate(300,184)" fill-opacity="1" fill="black" text-rendering="geometricPrecision" image-rendering="optimizeQuality" font-family="sans-serif" stroke-linejoin="round" stroke="black" stroke-opacity="1"
    ><line y2="50" fill="none" x1="50" clip-path="url(#clipPath59)" x2="50" y1="91"
      /><line y2="50" fill="none" x1="50" clip-path="url(#clipPath59)" x2="241" y1="50"
    /></g
    ><g stroke-linecap="butt" font-size="11px" transform="translate(308,325)" fill-opacity="1" fill="black" text-rendering="geometricPrecision" image-rendering="optimizeQuality" font-family="sans-serif" stroke-linejoin="round" stroke="black" stroke-opacity="1"
    ><line y2="82" fill="none" x1="50" clip-path="url(#clipPath61)" x2="50" y1="50"
      /><line y2="82" fill="none" x1="50" clip-path="url(#clipPath61)" x2="190" y1="82"
    /></g
    ><g stroke-linecap="butt" font-size="11px" transform="translate(360,64)" fill-opacity="1" fill="black" text-rendering="geometricPrecision" image-rendering="optimizeQuality" font-family="sans-serif" stroke-linejoin="round" stroke="black" stroke-opacity="1"
    ><line y2="100" fill="none" x1="50" clip-path="url(#clipPath63)" x2="229" y1="100"
      /><line y2="50" fill="none" x1="229" clip-path="url(#clipPath63)" x2="229" y1="100"
    /></g
    ><g stroke-linecap="butt" font-size="11px" transform="translate(-21,138)" fill-opacity="1" fill="black" text-rendering="geometricPrecision" image-rendering="optimizeQuality" font-family="sans-serif" stroke-linejoin="round" stroke="black" stroke-opacity="1"
    ><line y2="432" fill="none" x1="337" clip-path="url(#clipPath65)" x2="337" y1="413"
      /><line y2="432" fill="none" x1="337" clip-path="url(#clipPath65)" x2="50" y1="432"
      /><line y2="50" fill="none" x1="50" clip-path="url(#clipPath65)" x2="50" y1="432"
      /><line y2="50" fill="none" x1="50" clip-path="url(#clipPath65)" x2="308" y1="50"
    /></g
    ><g stroke-linecap="butt" font-size="11px" transform="translate(-48,-5)" fill-opacity="1" fill="black" text-rendering="geometricPrecision" image-rendering="optimizeQuality" font-family="sans-serif" stroke-linejoin="round" stroke="black" stroke-opacity="1"
    ><line y2="590" fill="none" x1="388" clip-path="url(#clipPath67)" x2="388" y1="556"
      /><line y2="590" fill="none" x1="388" clip-path="url(#clipPath67)" x2="50" y1="590"
      /><line y2="50" fill="none" x1="50" clip-path="url(#clipPath67)" x2="50" y1="590"
      /><line y2="50" fill="none" x1="50" clip-path="url(#clipPath67)" x2="572" y1="50"
    /></g
    ><g stroke-linecap="butt" font-size="11px" transform="translate(317,413)" fill-opacity="1" fill="black" text-rendering="geometricPrecision" image-rendering="optimizeQuality" font-family="sans-serif" stroke-linejoin="round" stroke="black" stroke-opacity="1"
    ><line y2="172" fill="none" x1="50" clip-path="url(#clipPath69)" x2="50" y1="138"
      /><line y2="172" fill="none" x1="50" clip-path="url(#clipPath69)" x2="495" y1="172"
      /><line y2="50" fill="none" x1="495" clip-path="url(#clipPath69)" x2="495" y1="172"
    /></g
    ><g stroke-linecap="butt" font-size="11px" transform="translate(575,172)" fill-opacity="1" fill="black" text-rendering="geometricPrecision" image-rendering="optimizeQuality" font-family="sans-serif" stroke-linejoin="round" stroke="black" stroke-opacity="1"
    ><line y2="50" fill="none" x1="50" clip-path="url(#clipPath71)" x2="194" y1="50"
    /></g
    ><g stroke-linecap="butt" font-size="11px" transform="translate(15,296)" fill-opacity="1" fill="black" text-rendering="geometricPrecision" image-rendering="optimizeQuality" font-family="sans-serif" stroke-linejoin="round" stroke="black" stroke-opacity="1"
    ><line y2="306" fill="none" x1="50" clip-path="url(#clipPath73)" x2="50" y1="50"
      /><line y2="306" fill="none" x1="50" clip-path="url(#clipPath73)" x2="810" y1="306"
      /><line y2="167" fill="none" x1="810" clip-path="url(#clipPath73)" x2="810" y1="306"
    /></g
    ><g stroke-linecap="butt" font-size="11px" transform="translate(15,-32)" fill-opacity="1" fill="black" text-rendering="geometricPrecision" image-rendering="optimizeQuality" font-family="sans-serif" stroke-linejoin="round" stroke="black" stroke-opacity="1"
    ><line y2="50" fill="none" x1="50" clip-path="url(#clipPath75)" x2="50" y1="336"
      /><line y2="50" fill="none" x1="50" clip-path="url(#clipPath75)" x2="828" y1="50"
      /><line y2="225" fill="none" x1="828" clip-path="url(#clipPath75)" x2="828" y1="50"
    /></g
    ><g stroke-linecap="butt" font-size="11px" transform="translate(592,63)" fill-opacity="1" fill="black" text-rendering="geometricPrecision" image-rendering="optimizeQuality" font-family="sans-serif" stroke-linejoin="round" stroke="black" stroke-opacity="1"
    ><line y2="50" fill="none" x1="50" clip-path="url(#clipPath77)" x2="166" y1="50"
      /><line y2="312" fill="none" x1="166" clip-path="url(#clipPath77)" x2="169" y1="50"
    /></g
    ><g stroke-linecap="butt" font-size="11px" transform="translate(360,129)" fill-opacity="1" fill="black" text-rendering="geometricPrecision" image-rendering="optimizeQuality" font-family="sans-serif" stroke-linejoin="round" stroke="black" stroke-opacity="1"
    ><line y2="50" fill="none" x1="50" clip-path="url(#clipPath79)" x2="571" y1="50"
      /><line y2="290" fill="none" x1="571" clip-path="url(#clipPath79)" x2="571" y1="50"
      /><line y2="290" fill="none" x1="571" clip-path="url(#clipPath79)" x2="511" y1="290"
    /></g
    ><g stroke-linecap="butt" font-size="11px" transform="translate(340,271)" fill-opacity="1" fill="black" text-rendering="geometricPrecision" image-rendering="optimizeQuality" font-family="sans-serif" stroke-linejoin="round" stroke="black" stroke-opacity="1"
    ><line y2="50" fill="none" x1="50" clip-path="url(#clipPath81)" x2="128" y1="50"
    /></g
    ><g stroke-linecap="butt" font-size="11px" transform="translate(778,258)" fill-opacity="1" fill="black" text-rendering="geometricPrecision" image-rendering="optimizeQuality" font-family="sans-serif" stroke-linejoin="round" stroke="black" stroke-opacity="1"
    ><line y2="117" fill="none" x1="50" clip-path="url(#clipPath83)" x2="50" y1="50"
    /></g
    ><g stroke-linecap="butt" font-size="11px" transform="translate(500,227)" fill-opacity="1" fill="black" text-rendering="geometricPrecision" image-rendering="optimizeQuality" font-family="sans-serif" stroke-linejoin="round" stroke="black" stroke-opacity="1"
    ><line y2="101" fill="none" x1="50" clip-path="url(#clipPath85)" x2="111" y1="101"
      /><line y2="50" fill="none" x1="111" clip-path="url(#clipPath85)" x2="111" y1="101"
    /></g
    ><g font-size="11px" transform="translate(559,337)" fill-opacity="1" fill="black" text-rendering="geometricPrecision" image-rendering="optimizeQuality" font-family="sans-serif" stroke="black" stroke-opacity="1"
    ><text x="9" xml:space="preserve" y="12" clip-path="url(#clipPath86)" stroke="none"
      >especifica ^</text
    ></g
    ><g font-size="11px" transform="translate(832,334)" fill-opacity="1" fill="black" text-rendering="geometricPrecision" image-rendering="optimizeQuality" font-family="sans-serif" stroke="black" stroke-opacity="1"
    ><text x="9" xml:space="preserve" y="12" clip-path="url(#clipPath87)" stroke="none"
      >referente a</text
    ></g
    ><g font-size="11px" transform="translate(406,301)" fill-opacity="1" fill="black" text-rendering="geometricPrecision" image-rendering="optimizeQuality" font-family="sans-serif" stroke="black" stroke-opacity="1"
    ><text x="10" xml:space="preserve" y="12" clip-path="url(#clipPath88)" stroke="none"
      >tem &gt;</text
    ></g
    ><g font-size="11px" transform="translate(671,161)" fill-opacity="1" fill="black" text-rendering="geometricPrecision" image-rendering="optimizeQuality" font-family="sans-serif" stroke="black" stroke-opacity="1"
    ><text x="11" xml:space="preserve" y="12" clip-path="url(#clipPath89)" stroke="none"
      >&lt; referente a</text
    ></g
    ><g font-size="11px" transform="translate(665,95)" fill-opacity="1" fill="black" text-rendering="geometricPrecision" image-rendering="optimizeQuality" font-family="sans-serif" stroke="black" stroke-opacity="1"
    ><text x="11" xml:space="preserve" y="12" clip-path="url(#clipPath89)" stroke="none"
      >&lt; referente a</text
    ></g
    ><g font-size="11px" transform="translate(425,2)" fill-opacity="1" fill="black" text-rendering="geometricPrecision" image-rendering="optimizeQuality" font-family="sans-serif" stroke="black" stroke-opacity="1"
    ><text x="9" xml:space="preserve" y="12" clip-path="url(#clipPath90)" stroke="none"
      >possui &gt;</text
    ></g
    ><g font-size="11px" transform="translate(416,586)" fill-opacity="1" fill="black" text-rendering="geometricPrecision" image-rendering="optimizeQuality" font-family="sans-serif" stroke="black" stroke-opacity="1"
    ><text x="9" xml:space="preserve" y="12" clip-path="url(#clipPath90)" stroke="none"
      >possui &gt;</text
    ></g
    ><g font-size="11px" transform="translate(655,203)" fill-opacity="1" fill="black" text-rendering="geometricPrecision" image-rendering="optimizeQuality" font-family="sans-serif" stroke="black" stroke-opacity="1"
    ><text x="9" xml:space="preserve" y="12" clip-path="url(#clipPath91)" stroke="none"
      >especifica &gt;</text
    ></g
    ><g font-size="11px" transform="translate(559,565)" fill-opacity="1" fill="black" text-rendering="geometricPrecision" image-rendering="optimizeQuality" font-family="sans-serif" stroke="black" stroke-opacity="1"
    ><text x="9" xml:space="preserve" y="12" clip-path="url(#clipPath92)" stroke="none"
      >define &gt;</text
    ></g
    ><g font-size="11px" transform="translate(193,24)" fill-opacity="1" fill="black" text-rendering="geometricPrecision" image-rendering="optimizeQuality" font-family="sans-serif" stroke="black" stroke-opacity="1"
    ><text x="9" xml:space="preserve" y="12" clip-path="url(#clipPath92)" stroke="none"
      >define &gt;</text
    ></g
    ><g font-size="11px" transform="translate(120,167)" fill-opacity="1" fill="black" text-rendering="geometricPrecision" image-rendering="optimizeQuality" font-family="sans-serif" stroke="black" stroke-opacity="1"
    ><text x="9" xml:space="preserve" y="12" clip-path="url(#clipPath92)" stroke="none"
      >define &gt;</text
    ></g
    ><g font-size="11px" transform="translate(458,146)" fill-opacity="1" fill="black" text-rendering="geometricPrecision" image-rendering="optimizeQuality" font-family="sans-serif" stroke="black" stroke-opacity="1"
    ><text x="10" xml:space="preserve" y="12" clip-path="url(#clipPath93)" stroke="none"
      >referente a &gt;</text
    ></g
    ><g font-size="11px" transform="translate(369,389)" fill-opacity="1" fill="black" text-rendering="geometricPrecision" image-rendering="optimizeQuality" font-family="sans-serif" stroke="black" stroke-opacity="1"
    ><text x="9" xml:space="preserve" y="12" clip-path="url(#clipPath94)" stroke="none"
      >localizada em</text
    ></g
    ><g font-size="11px" transform="translate(410,215)" fill-opacity="1" fill="black" text-rendering="geometricPrecision" image-rendering="optimizeQuality" font-family="sans-serif" stroke="black" stroke-opacity="1"
    ><text x="10" xml:space="preserve" y="12" clip-path="url(#clipPath88)" stroke="none"
      >tem &gt;</text
    ></g
    ><g font-size="11px" transform="translate(442,249)" fill-opacity="1" fill="black" text-rendering="geometricPrecision" image-rendering="optimizeQuality" font-family="sans-serif" stroke="black" stroke-opacity="1"
    ><text x="10" xml:space="preserve" y="12" clip-path="url(#clipPath95)" stroke="none"
      >atua como &gt;</text
    ></g
    ><g font-size="11px" transform="translate(659,352)" fill-opacity="1" fill="black" text-rendering="geometricPrecision" image-rendering="optimizeQuality" font-family="sans-serif" stroke="black" stroke-opacity="1"
    ><text x="9" xml:space="preserve" y="12" clip-path="url(#clipPath96)" stroke="none"
      >atua como</text
    ></g
    ><g font-size="11px" transform="translate(456,472)" fill-opacity="1" fill="black" text-rendering="geometricPrecision" image-rendering="optimizeQuality" font-family="sans-serif" stroke="black" stroke-opacity="1"
    ><text x="10" xml:space="preserve" y="12" clip-path="url(#clipPath95)" stroke="none"
      >atua como &gt;</text
    ></g
    ><g font-size="11px" transform="translate(460,513)" fill-opacity="1" fill="black" text-rendering="geometricPrecision" image-rendering="optimizeQuality" font-family="sans-serif" stroke="black" stroke-opacity="1"
    ><text x="10" xml:space="preserve" y="12" clip-path="url(#clipPath95)" stroke="none"
      >atua como &gt;</text
    ></g
    ><g font-size="11px" transform="translate(97,507)" fill-opacity="1" fill="black" text-rendering="geometricPrecision" image-rendering="optimizeQuality" font-family="sans-serif" stroke="black" stroke-opacity="1"
    ><text x="10" xml:space="preserve" y="12" clip-path="url(#clipPath88)" stroke="none"
      >tem &gt;</text
    ></g
    ><g font-size="11px" transform="translate(179,423)" fill-opacity="1" fill="black" text-rendering="geometricPrecision" image-rendering="optimizeQuality" font-family="sans-serif" stroke="black" stroke-opacity="1"
    ><text x="10" xml:space="preserve" y="12" clip-path="url(#clipPath97)" stroke="none"
      >tem/usa &gt;</text
    ></g
    ><g font-size="11px" transform="translate(270,62)" fill-opacity="1" fill="black" text-rendering="geometricPrecision" image-rendering="optimizeQuality" font-family="sans-serif" stroke="black" stroke-opacity="1"
    ><text x="9" xml:space="preserve" y="12" clip-path="url(#clipPath90)" stroke="none"
      >possui &gt;</text
    ></g
    ><g font-size="11px" transform="translate(177,202)" fill-opacity="1" fill="black" text-rendering="geometricPrecision" image-rendering="optimizeQuality" font-family="sans-serif" stroke="black" stroke-opacity="1"
    ><text x="9" xml:space="preserve" y="12" clip-path="url(#clipPath90)" stroke="none"
      >possui &gt;</text
    ></g
    ><g font-size="11px" transform="translate(171,309)" fill-opacity="1" fill="black" text-rendering="geometricPrecision" image-rendering="optimizeQuality" font-family="sans-serif" stroke="black" stroke-opacity="1"
    ><text x="10" xml:space="preserve" y="12" clip-path="url(#clipPath98)" stroke="none"
      >tem registadas &gt;</text
    ></g
    ><g font-size="8px" fill-opacity="1" fill="rgb(120,120,120)" text-rendering="geometricPrecision" image-rendering="optimizeQuality" stroke="rgb(120,120,120)" stroke-opacity="1"
    ><text x="0" xml:space="preserve" y="10" stroke="none"
      >Visual Paradigm Standard(jorgi(Instituto Superior de Engenharia do Porto))</text
    ></g
  ></g
></svg
>
