<?xml version="1.0" encoding="UTF-8"?>
<!DOCTYPE svg PUBLIC '-//W3C//DTD SVG 1.0//EN'
          'http://www.w3.org/TR/2001/REC-SVG-20010904/DTD/svg10.dtd'>
<svg fill-opacity="0" xmlns:xlink="http://www.w3.org/1999/xlink" color-rendering="auto" color-interpolation="auto" text-rendering="auto" stroke="rgb(0,0,0)" stroke-linecap="square" width="495" stroke-miterlimit="10" shape-rendering="auto" stroke-opacity="0" fill="rgb(0,0,0)" stroke-dasharray="none" font-weight="normal" stroke-width="1" height="388" xmlns="http://www.w3.org/2000/svg" font-family="'Dialog'" font-style="normal" stroke-linejoin="miter" font-size="12px" stroke-dashoffset="0" image-rendering="auto"
><!--Generated by the Batik Graphics2D SVG Generator--><defs id="genericDefs"
  /><g
  ><defs id="defs1"
    ><clipPath clipPathUnits="userSpaceOnUse" id="clipPath1"
      ><path d="M-7 -7 L71 -7 L71 393 L-7 393 L-7 -7 Z"
      /></clipPath
      ><clipPath clipPathUnits="userSpaceOnUse" id="clipPath2"
      ><path d="M-7 -7 L81 -7 L81 393 L-7 393 L-7 -7 Z"
      /></clipPath
      ><clipPath clipPathUnits="userSpaceOnUse" id="clipPath3"
      ><path d="M-7 -7 L19 -7 L19 67 L-7 67 L-7 -7 Z"
      /></clipPath
      ><clipPath clipPathUnits="userSpaceOnUse" id="clipPath4"
      ><path d="M-7 -7 L19 -7 L19 61 L-7 61 L-7 -7 Z"
      /></clipPath
      ><clipPath clipPathUnits="userSpaceOnUse" id="clipPath5"
      ><path d="M-7 -7 L19 -7 L19 56 L-7 56 L-7 -7 Z"
      /></clipPath
      ><clipPath clipPathUnits="userSpaceOnUse" id="clipPath6"
      ><path d="M-7 -7 L19 -7 L19 71 L-7 71 L-7 -7 Z"
      /></clipPath
      ><clipPath clipPathUnits="userSpaceOnUse" id="clipPath7"
      ><path d="M-90 -15 L180 -15 L180 30 L-90 30 L-90 -15 Z"
      /></clipPath
      ><clipPath clipPathUnits="userSpaceOnUse" id="clipPath8"
      ><path d="M-70 -15 L140 -15 L140 30 L-70 30 L-70 -15 Z"
      /></clipPath
      ><clipPath clipPathUnits="userSpaceOnUse" id="clipPath9"
      ><path d="M0 0 L505 0 L505 104 L0 104 L0 0 Z"
      /></clipPath
      ><clipPath clipPathUnits="userSpaceOnUse" id="clipPath10"
      ><path d="M401 29 L401 44 L94 44 L94 29 ZM414 58 L414 91 L92 91 L92 58 ZM0 0 L0 104 L505 104 L505 0 L91 0 L91 10 L1 10 L1 0 Z"
      /></clipPath
      ><clipPath clipPathUnits="userSpaceOnUse" id="clipPath11"
      ><path d="M414 14 L414 47 L92 47 L92 14 ZM337 67 L337 82 L163 82 L163 67 ZM0 0 L0 104 L61 104 L61 96 L444 96 L444 104 L505 104 L505 0 Z"
      /></clipPath
      ><clipPath clipPathUnits="userSpaceOnUse" id="clipPath12"
      ><path d="M360 29 L360 44 L137 44 L137 29 ZM426 68 L426 83 L75 83 L75 68 ZM0 0 L0 104 L212 104 L212 98 L287 98 L287 104 L505 104 L505 0 L444 0 L444 12 L61 12 L61 0 Z"
      /></clipPath
      ><clipPath clipPathUnits="userSpaceOnUse" id="clipPath13"
      ><path d="M426 30 L426 45 L75 45 L75 30 ZM287 60 L287 75 L212 75 L212 60 ZM0 0 L0 104 L110 104 L110 93 L392 93 L392 104 L505 104 L505 0 L360 0 L360 6 L137 6 L137 0 Z"
      /></clipPath
      ><clipPath clipPathUnits="userSpaceOnUse" id="clipPath14"
      ><path d="M287 30 L287 45 L212 45 L212 30 ZM392 63 L392 78 L110 78 L110 63 ZM0 0 L0 104 L505 104 L505 0 L426 0 L426 15 L75 15 L75 0 Z"
      /></clipPath
      ><clipPath clipPathUnits="userSpaceOnUse" id="clipPath15"
      ><path d="M392 30 L392 45 L110 45 L110 30 ZM0 0 L0 104 L505 104 L505 0 L287 0 L287 12 L212 12 L212 0 Z"
      /></clipPath
      ><clipPath clipPathUnits="userSpaceOnUse" id="clipPath16"
      ><path d="M337 30 L337 45 L163 45 L163 30 ZM444 59 L444 90 L61 90 L61 59 ZM0 0 L0 104 L505 104 L505 0 L414 0 L414 10 L92 10 L92 0 Z"
      /></clipPath
      ><clipPath clipPathUnits="userSpaceOnUse" id="clipPath17"
      ><path d="M444 11 L444 42 L61 42 L61 11 ZM360 59 L360 74 L137 74 L137 59 ZM0 0 L0 104 L75 104 L75 98 L426 98 L426 104 L505 104 L505 0 Z"
      /></clipPath
      ><clipPath clipPathUnits="userSpaceOnUse" id="clipPath18"
      ><path d="M-383 -31 L766 -31 L766 62 L-383 62 L-383 -31 Z"
      /></clipPath
      ><clipPath clipPathUnits="userSpaceOnUse" id="clipPath19"
      ><path d="M-174 -15 L348 -15 L348 30 L-174 30 L-174 -15 Z"
      /></clipPath
      ><clipPath clipPathUnits="userSpaceOnUse" id="clipPath20"
      ><path d="M-282 -15 L564 -15 L564 30 L-282 30 L-282 -15 Z"
      /></clipPath
      ><clipPath clipPathUnits="userSpaceOnUse" id="clipPath21"
      ><path d="M-75 -15 L150 -15 L150 30 L-75 30 L-75 -15 Z"
      /></clipPath
      ><clipPath clipPathUnits="userSpaceOnUse" id="clipPath22"
      ><path d="M-351 -15 L702 -15 L702 30 L-351 30 L-351 -15 Z"
      /></clipPath
      ><clipPath clipPathUnits="userSpaceOnUse" id="clipPath23"
      ><path d="M-223 -15 L446 -15 L446 30 L-223 30 L-223 -15 Z"
      /></clipPath
      ><clipPath clipPathUnits="userSpaceOnUse" id="clipPath24"
      ><path d="M-322 -33 L644 -33 L644 66 L-322 66 L-322 -33 Z"
      /></clipPath
      ><clipPath clipPathUnits="userSpaceOnUse" id="clipPath25"
      ><path d="M-307 -15 L614 -15 L614 30 L-307 30 L-307 -15 Z"
      /></clipPath
    ></defs
    ><g fill="white" text-rendering="geometricPrecision" fill-opacity="1" stroke-opacity="1" stroke="white"
    ><rect x="0" width="495" height="388" y="0" stroke="none"
    /></g
    ><g font-size="11px" transform="translate(17,2)" fill-opacity="1" fill="rgb(122,207,245)" text-rendering="geometricPrecision" image-rendering="optimizeQuality" font-family="sans-serif" stroke="rgb(122,207,245)" stroke-opacity="1"
    ><circle r="5" clip-path="url(#clipPath1)" cx="30" cy="5" stroke="none"
      /><rect x="26" width="8" height="331" y="50" clip-path="url(#clipPath1)" stroke="none"
    /></g
    ><g stroke-linecap="butt" font-size="11px" transform="translate(17,2)" fill-opacity="1" fill="black" text-rendering="geometricPrecision" image-rendering="optimizeQuality" font-family="sans-serif" stroke-linejoin="round" stroke="black" stroke-opacity="1" stroke-miterlimit="0"
    ><circle fill="none" r="5" clip-path="url(#clipPath1)" cx="30" cy="5"
      /><rect fill="none" x="26" width="8" height="331" y="50" clip-path="url(#clipPath1)"
      /><line y2="25" fill="none" x1="30" clip-path="url(#clipPath1)" x2="30" y1="10"
      /><line y2="36" fill="none" x1="30" clip-path="url(#clipPath1)" x2="21" y1="25"
      /><line y2="36" fill="none" x1="30" clip-path="url(#clipPath1)" x2="39" y1="25"
      /><line y2="16" fill="none" x1="21" clip-path="url(#clipPath1)" x2="39" y1="16"
    /></g
    ><g font-size="11px" transform="translate(421,2)" fill-opacity="1" fill="rgb(122,207,245)" text-rendering="geometricPrecision" image-rendering="optimizeQuality" font-family="sans-serif" stroke="rgb(122,207,245)" stroke-opacity="1"
    ><rect x="0" width="69" height="35" y="0" clip-path="url(#clipPath2)" stroke="none"
    /></g
    ><g stroke-linecap="butt" font-size="11px" transform="translate(421,2)" fill-opacity="1" fill="black" text-rendering="geometricPrecision" image-rendering="optimizeQuality" font-family="sans-serif" stroke-linejoin="round" stroke="black" stroke-opacity="1" stroke-miterlimit="0"
    ><rect fill="none" x="0" width="69" height="35" y="0" clip-path="url(#clipPath2)"
      /><line clip-path="url(#clipPath2)" fill="none" x1="34" x2="34" y1="35" y2="382" stroke-linejoin="bevel" stroke-dasharray="8,3"
    /></g
    ><g font-size="11px" transform="translate(452,92)" fill-opacity="1" fill="rgb(122,207,245)" text-rendering="geometricPrecision" image-rendering="optimizeQuality" font-family="sans-serif" stroke="rgb(122,207,245)" stroke-opacity="1"
    ><rect x="0" width="8" height="56" y="0" clip-path="url(#clipPath3)" stroke="none"
    /></g
    ><g stroke-linecap="butt" font-size="11px" transform="translate(452,92)" fill-opacity="1" fill="black" text-rendering="geometricPrecision" image-rendering="optimizeQuality" font-family="sans-serif" stroke-linejoin="round" stroke="black" stroke-opacity="1" stroke-miterlimit="0"
    ><rect fill="none" x="0" width="8" height="56" y="0" clip-path="url(#clipPath3)"
    /></g
    ><g font-size="11px" transform="translate(452,246)" fill-opacity="1" fill="rgb(122,207,245)" text-rendering="geometricPrecision" image-rendering="optimizeQuality" font-family="sans-serif" stroke="rgb(122,207,245)" stroke-opacity="1"
    ><rect x="0" width="8" height="50" y="0" clip-path="url(#clipPath4)" stroke="none"
    /></g
    ><g stroke-linecap="butt" font-size="11px" transform="translate(452,246)" fill-opacity="1" fill="black" text-rendering="geometricPrecision" image-rendering="optimizeQuality" font-family="sans-serif" stroke-linejoin="round" stroke="black" stroke-opacity="1" stroke-miterlimit="0"
    ><rect fill="none" x="0" width="8" height="50" y="0" clip-path="url(#clipPath4)"
    /></g
    ><g font-size="11px" transform="translate(452,319)" fill-opacity="1" fill="rgb(122,207,245)" text-rendering="geometricPrecision" image-rendering="optimizeQuality" font-family="sans-serif" stroke="rgb(122,207,245)" stroke-opacity="1"
    ><rect x="0" width="8" height="45" y="0" clip-path="url(#clipPath5)" stroke="none"
    /></g
    ><g stroke-linecap="butt" font-size="11px" transform="translate(452,319)" fill-opacity="1" fill="black" text-rendering="geometricPrecision" image-rendering="optimizeQuality" font-family="sans-serif" stroke-linejoin="round" stroke="black" stroke-opacity="1" stroke-miterlimit="0"
    ><rect fill="none" x="0" width="8" height="45" y="0" clip-path="url(#clipPath5)"
    /></g
    ><g font-size="11px" transform="translate(452,172)" fill-opacity="1" fill="rgb(122,207,245)" text-rendering="geometricPrecision" image-rendering="optimizeQuality" font-family="sans-serif" stroke="rgb(122,207,245)" stroke-opacity="1"
    ><rect x="0" width="8" height="60" y="0" clip-path="url(#clipPath6)" stroke="none"
    /></g
    ><g stroke-linecap="butt" font-size="11px" transform="translate(452,172)" fill-opacity="1" fill="black" text-rendering="geometricPrecision" image-rendering="optimizeQuality" font-family="sans-serif" stroke-linejoin="round" stroke="black" stroke-opacity="1" stroke-miterlimit="0"
    ><rect fill="none" x="0" width="8" height="60" y="0" clip-path="url(#clipPath6)"
    /></g
    ><g font-size="11px" transform="translate(2,37)" fill-opacity="1" fill="black" text-rendering="geometricPrecision" image-rendering="optimizeQuality" font-family="sans-serif" stroke="black" stroke-opacity="1"
    ><text x="10" xml:space="preserve" y="12" clip-path="url(#clipPath7)" stroke="none"
      >Administrativo</text
    ></g
    ><g font-size="11px" transform="translate(421,2)" fill-opacity="1" fill="black" text-rendering="geometricPrecision" image-rendering="optimizeQuality" font-family="sans-serif" stroke="black" stroke-opacity="1"
    ><text x="11" xml:space="preserve" y="12" clip-path="url(#clipPath8)" stroke="none"
      >: Sistema</text
    ></g
    ><g stroke-linecap="butt" font-size="11px" transform="translate(1,42)" fill-opacity="1" fill="black" text-rendering="geometricPrecision" image-rendering="optimizeQuality" font-family="sans-serif" stroke-linejoin="round" stroke="black" stroke-opacity="1"
    ><line y2="50" fill="none" x1="50" clip-path="url(#clipPath10)" x2="451" y1="50"
      /><polygon points=" 451 50 439 44 439 56" clip-path="url(#clipPath10)" stroke="none"
      /><polygon fill="none" points=" 451 50 439 44 439 56" clip-path="url(#clipPath10)"
    /></g
    ><g fill-opacity="1" text-rendering="geometricPrecision" stroke="black" stroke-linecap="butt" transform="translate(1,86)" stroke-miterlimit="0" stroke-opacity="1" fill="black" stroke-dasharray="8,3" font-family="sans-serif" stroke-linejoin="round" font-size="11px" image-rendering="optimizeQuality"
    ><line y2="50" fill="none" x1="451" clip-path="url(#clipPath11)" x2="50" y1="50"
      /><line clip-path="url(#clipPath11)" fill="none" x1="50" x2="62" y1="50" y2="56" stroke-dasharray="none" stroke-miterlimit="10"
      /><line clip-path="url(#clipPath11)" fill="none" x1="50" x2="62" y1="50" y2="44" stroke-dasharray="none" stroke-miterlimit="10"
    /></g
    ><g stroke-linecap="butt" font-size="11px" transform="translate(1,201)" fill-opacity="1" fill="black" text-rendering="geometricPrecision" image-rendering="optimizeQuality" font-family="sans-serif" stroke-linejoin="round" stroke="black" stroke-opacity="1"
    ><line y2="50" fill="none" x1="50" clip-path="url(#clipPath12)" x2="451" y1="50"
      /><polygon points=" 451 50 439 44 439 56" clip-path="url(#clipPath12)" stroke="none"
      /><polygon fill="none" points=" 451 50 439 44 439 56" clip-path="url(#clipPath12)"
    /></g
    ><g fill-opacity="1" text-rendering="geometricPrecision" stroke="black" stroke-linecap="butt" transform="translate(1,239)" stroke-miterlimit="0" stroke-opacity="1" fill="black" stroke-dasharray="8,3" font-family="sans-serif" stroke-linejoin="round" font-size="11px" image-rendering="optimizeQuality"
    ><line y2="50" fill="none" x1="451" clip-path="url(#clipPath13)" x2="50" y1="50"
      /><line clip-path="url(#clipPath13)" fill="none" x1="50" x2="62" y1="50" y2="56" stroke-dasharray="none" stroke-miterlimit="10"
      /><line clip-path="url(#clipPath13)" fill="none" x1="50" x2="62" y1="50" y2="44" stroke-dasharray="none" stroke-miterlimit="10"
    /></g
    ><g stroke-linecap="butt" font-size="11px" transform="translate(1,269)" fill-opacity="1" fill="black" text-rendering="geometricPrecision" image-rendering="optimizeQuality" font-family="sans-serif" stroke-linejoin="round" stroke="black" stroke-opacity="1"
    ><line y2="50" fill="none" x1="50" clip-path="url(#clipPath14)" x2="451" y1="50"
      /><polygon points=" 451 50 439 44 439 56" clip-path="url(#clipPath14)" stroke="none"
      /><polygon fill="none" points=" 451 50 439 44 439 56" clip-path="url(#clipPath14)"
    /></g
    ><g fill-opacity="1" text-rendering="geometricPrecision" stroke="black" stroke-linecap="butt" transform="translate(1,302)" stroke-miterlimit="0" stroke-opacity="1" fill="black" stroke-dasharray="8,3" font-family="sans-serif" stroke-linejoin="round" font-size="11px" image-rendering="optimizeQuality"
    ><line y2="50" fill="none" x1="451" clip-path="url(#clipPath15)" x2="50" y1="50"
      /><line clip-path="url(#clipPath15)" fill="none" x1="50" x2="62" y1="50" y2="56" stroke-dasharray="none" stroke-miterlimit="10"
      /><line clip-path="url(#clipPath15)" fill="none" x1="50" x2="62" y1="50" y2="44" stroke-dasharray="none" stroke-miterlimit="10"
    /></g
    ><g stroke-linecap="butt" font-size="11px" transform="translate(1,123)" fill-opacity="1" fill="black" text-rendering="geometricPrecision" image-rendering="optimizeQuality" font-family="sans-serif" stroke-linejoin="round" stroke="black" stroke-opacity="1"
    ><line y2="50" fill="none" x1="50" clip-path="url(#clipPath16)" x2="451" y1="50"
      /><polygon points=" 451 50 439 44 439 56" clip-path="url(#clipPath16)" stroke="none"
      /><polygon fill="none" points=" 451 50 439 44 439 56" clip-path="url(#clipPath16)"
    /></g
    ><g fill-opacity="1" text-rendering="geometricPrecision" stroke="black" stroke-linecap="butt" transform="translate(1,171)" stroke-miterlimit="0" stroke-opacity="1" fill="black" stroke-dasharray="8,3" font-family="sans-serif" stroke-linejoin="round" font-size="11px" image-rendering="optimizeQuality"
    ><line y2="50" fill="none" x1="451" clip-path="url(#clipPath17)" x2="50" y1="50"
      /><line clip-path="url(#clipPath17)" fill="none" x1="50" x2="62" y1="50" y2="56" stroke-dasharray="none" stroke-miterlimit="10"
      /><line clip-path="url(#clipPath17)" fill="none" x1="50" x2="62" y1="50" y2="44" stroke-dasharray="none" stroke-miterlimit="10"
    /></g
    ><g font-size="11px" transform="translate(62,182)" fill-opacity="1" fill="white" text-rendering="geometricPrecision" image-rendering="optimizeQuality" font-family="sans-serif" stroke="white" stroke-opacity="1"
    ><rect x="0" width="383" height="31" y="0" clip-path="url(#clipPath18)" stroke="none"
      /><text fill="black" x="26" xml:space="preserve" y="12" clip-path="url(#clipPath18)" stroke="none"
      >2.1: apresenta as áreas de atividade e solicita a escolha da área de</text
      ><text fill="black" x="145" xml:space="preserve" y="27" clip-path="url(#clipPath18)" stroke="none"
      >atividade referente</text
    ></g
    ><g font-size="11px" transform="translate(164,153)" fill-opacity="1" fill="white" text-rendering="geometricPrecision" image-rendering="optimizeQuality" font-family="sans-serif" stroke="white" stroke-opacity="1"
    ><rect x="0" width="174" height="15" y="0" clip-path="url(#clipPath19)" stroke="none"
      /><text fill="black" x="9" xml:space="preserve" y="12" clip-path="url(#clipPath19)" stroke="none"
      >2: introduz os dados solicitados</text
    ></g
    ><g font-size="11px" transform="translate(111,332)" fill-opacity="1" fill="white" text-rendering="geometricPrecision" image-rendering="optimizeQuality" font-family="sans-serif" stroke="white" stroke-opacity="1"
    ><rect x="0" width="282" height="15" y="0" clip-path="url(#clipPath20)" stroke="none"
      /><text fill="black" x="9" xml:space="preserve" y="12" clip-path="url(#clipPath20)" stroke="none"
      >4.1: informa o administrativo do sucesso da operação</text
    ></g
    ><g font-size="11px" transform="translate(213,299)" fill-opacity="1" fill="white" text-rendering="geometricPrecision" image-rendering="optimizeQuality" font-family="sans-serif" stroke="white" stroke-opacity="1"
    ><rect x="0" width="75" height="15" y="0" clip-path="url(#clipPath21)" stroke="none"
      /><text fill="black" x="9" xml:space="preserve" y="12" clip-path="url(#clipPath21)" stroke="none"
      >4: confirma</text
    ></g
    ><g font-size="11px" transform="translate(76,269)" fill-opacity="1" fill="white" text-rendering="geometricPrecision" image-rendering="optimizeQuality" font-family="sans-serif" stroke="white" stroke-opacity="1"
    ><rect x="0" width="351" height="15" y="0" clip-path="url(#clipPath22)" stroke="none"
      /><text fill="black" x="10" xml:space="preserve" y="12" clip-path="url(#clipPath22)" stroke="none"
      >3.1: apresenta os dados ao administrativo, pedindo que os confirme</text
    ></g
    ><g font-size="11px" transform="translate(138,230)" fill-opacity="1" fill="white" text-rendering="geometricPrecision" image-rendering="optimizeQuality" font-family="sans-serif" stroke="white" stroke-opacity="1"
    ><rect x="0" width="223" height="15" y="0" clip-path="url(#clipPath23)" stroke="none"
      /><text fill="black" x="9" xml:space="preserve" y="12" clip-path="url(#clipPath23)" stroke="none"
      >3: seleciona a área de atividade referente</text
    ></g
    ><g font-size="11px" transform="translate(93,100)" fill-opacity="1" fill="white" text-rendering="geometricPrecision" image-rendering="optimizeQuality" font-family="sans-serif" stroke="white" stroke-opacity="1"
    ><rect x="0" width="322" height="33" y="0" clip-path="url(#clipPath24)" stroke="none"
      /><text fill="black" x="8" xml:space="preserve" y="13" clip-path="url(#clipPath24)" stroke="none"
      >1.1: solicita os dados necessários (i.e. código único, descrição</text
      ><text fill="black" x="114" xml:space="preserve" y="28" clip-path="url(#clipPath24)" stroke="none"
      >breve e detalhada)</text
    ></g
    ><g font-size="11px" transform="translate(95,71)" fill-opacity="1" fill="white" text-rendering="geometricPrecision" image-rendering="optimizeQuality" font-family="sans-serif" stroke="white" stroke-opacity="1"
    ><rect x="0" width="307" height="15" y="0" clip-path="url(#clipPath25)" stroke="none"
      /><text fill="black" x="9" xml:space="preserve" y="12" clip-path="url(#clipPath25)" stroke="none"
      >1: inicia a especificação de uma nova competência técnica</text
    ></g
    ><g font-size="8px" fill-opacity="1" fill="rgb(120,120,120)" text-rendering="geometricPrecision" image-rendering="optimizeQuality" stroke="rgb(120,120,120)" stroke-opacity="1"
    ><text x="0" xml:space="preserve" y="10" stroke="none"
      >Visual Paradigm Standard(jorgi(Instituto Superior de Engenharia do Porto))</text
    ></g
  ></g
></svg
>
