<?xml version="1.0" encoding="UTF-8"?>
<!DOCTYPE svg PUBLIC '-//W3C//DTD SVG 1.0//EN'
          'http://www.w3.org/TR/2001/REC-SVG-20010904/DTD/svg10.dtd'>
<svg fill-opacity="0" xmlns:xlink="http://www.w3.org/1999/xlink" color-rendering="auto" color-interpolation="auto" text-rendering="auto" stroke="rgb(0,0,0)" stroke-linecap="square" width="471" stroke-miterlimit="10" shape-rendering="auto" stroke-opacity="0" fill="rgb(0,0,0)" stroke-dasharray="none" font-weight="normal" stroke-width="1" height="251" xmlns="http://www.w3.org/2000/svg" font-family="'Dialog'" font-style="normal" stroke-linejoin="miter" font-size="12px" stroke-dashoffset="0" image-rendering="auto"
><!--Generated by the Batik Graphics2D SVG Generator--><defs id="genericDefs"
  /><g
  ><defs id="defs1"
    ><clipPath clipPathUnits="userSpaceOnUse" id="clipPath1"
      ><path d="M-7 -7 L111 -7 L111 256 L-7 256 L-7 -7 Z"
      /></clipPath
      ><clipPath clipPathUnits="userSpaceOnUse" id="clipPath2"
      ><path d="M-7 -7 L81 -7 L81 252 L-7 252 L-7 -7 Z"
      /></clipPath
      ><clipPath clipPathUnits="userSpaceOnUse" id="clipPath3"
      ><path d="M-7 -7 L19 -7 L19 51 L-7 51 L-7 -7 Z"
      /></clipPath
      ><clipPath clipPathUnits="userSpaceOnUse" id="clipPath4"
      ><path d="M-134 -15 L268 -15 L268 30 L-134 30 L-134 -15 Z"
      /></clipPath
      ><clipPath clipPathUnits="userSpaceOnUse" id="clipPath5"
      ><path d="M-70 -15 L140 -15 L140 30 L-70 30 L-70 -15 Z"
      /></clipPath
      ><clipPath clipPathUnits="userSpaceOnUse" id="clipPath6"
      ><path d="M0 0 L459 0 L459 104 L0 104 L0 0 Z"
      /></clipPath
      ><clipPath clipPathUnits="userSpaceOnUse" id="clipPath7"
      ><path d="M389 60 L389 75 L63 75 L63 60 ZM0 0 L0 20 L113 20 L113 30 L348 30 L348 45 L105 45 L105 35 L0 35 L0 104 L137 104 L137 98 L315 98 L315 104 L459 104 L459 0 Z"
      /></clipPath
      ><clipPath clipPathUnits="userSpaceOnUse" id="clipPath8"
      ><path d="M389 30 L389 45 L63 45 L63 30 ZM315 68 L315 83 L137 83 L137 68 ZM348 0 L348 15 L105 15 L105 5 L0 5 L0 104 L114 104 L114 97 L339 97 L339 104 L459 104 L459 0 Z"
      /></clipPath
      ><clipPath clipPathUnits="userSpaceOnUse" id="clipPath9"
      ><path d="M315 31 L315 46 L137 46 L137 31 ZM339 60 L339 75 L114 75 L114 60 ZM0 0 L0 104 L188 104 L188 103 L265 103 L265 104 L459 104 L459 0 L389 0 L389 8 L63 8 L63 0 Z"
      /></clipPath
      ><clipPath clipPathUnits="userSpaceOnUse" id="clipPath10"
      ><path d="M315 1 L315 16 L137 16 L137 1 ZM339 30 L339 45 L114 45 L114 30 ZM265 73 L265 88 L188 88 L188 73 ZM0 0 L0 104 L124 104 L124 103 L329 103 L329 104 L459 104 L459 0 Z"
      /></clipPath
      ><clipPath clipPathUnits="userSpaceOnUse" id="clipPath11"
      ><path d="M265 30 L265 45 L188 45 L188 30 ZM329 60 L329 75 L124 75 L124 60 ZM0 0 L0 104 L459 104 L459 0 L339 0 L339 2 L114 2 L114 0 Z"
      /></clipPath
      ><clipPath clipPathUnits="userSpaceOnUse" id="clipPath12"
      ><path d="M329 30 L329 45 L124 45 L124 30 ZM0 0 L0 104 L459 104 L459 0 L265 0 L265 15 L188 15 L188 0 Z"
      /></clipPath
      ><clipPath clipPathUnits="userSpaceOnUse" id="clipPath13"
      ><path d="M-205 -15 L410 -15 L410 30 L-205 30 L-205 -15 Z"
      /></clipPath
      ><clipPath clipPathUnits="userSpaceOnUse" id="clipPath14"
      ><path d="M-77 -15 L154 -15 L154 30 L-77 30 L-77 -15 Z"
      /></clipPath
      ><clipPath clipPathUnits="userSpaceOnUse" id="clipPath15"
      ><path d="M-225 -15 L450 -15 L450 30 L-225 30 L-225 -15 Z"
      /></clipPath
      ><clipPath clipPathUnits="userSpaceOnUse" id="clipPath16"
      ><path d="M-178 -15 L356 -15 L356 30 L-178 30 L-178 -15 Z"
      /></clipPath
      ><clipPath clipPathUnits="userSpaceOnUse" id="clipPath17"
      ><path d="M-326 -15 L652 -15 L652 30 L-326 30 L-326 -15 Z"
      /></clipPath
      ><clipPath clipPathUnits="userSpaceOnUse" id="clipPath18"
      ><path d="M-243 -15 L486 -15 L486 30 L-243 30 L-243 -15 Z"
      /></clipPath
    ></defs
    ><g fill="white" text-rendering="geometricPrecision" fill-opacity="1" stroke-opacity="1" stroke="white"
    ><rect x="0" width="471" height="251" y="0" stroke="none"
    /></g
    ><g font-size="11px" transform="translate(19,2)" fill-opacity="1" fill="rgb(122,207,245)" text-rendering="geometricPrecision" image-rendering="optimizeQuality" font-family="sans-serif" stroke="rgb(122,207,245)" stroke-opacity="1"
    ><circle r="5" clip-path="url(#clipPath1)" cx="50" cy="5" stroke="none"
      /><rect x="46" width="8" height="194" y="50" clip-path="url(#clipPath1)" stroke="none"
    /></g
    ><g stroke-linecap="butt" font-size="11px" transform="translate(19,2)" fill-opacity="1" fill="black" text-rendering="geometricPrecision" image-rendering="optimizeQuality" font-family="sans-serif" stroke-linejoin="round" stroke="black" stroke-opacity="1" stroke-miterlimit="0"
    ><circle fill="none" r="5" clip-path="url(#clipPath1)" cx="50" cy="5"
      /><rect fill="none" x="46" width="8" height="194" y="50" clip-path="url(#clipPath1)"
      /><line y2="25" fill="none" x1="50" clip-path="url(#clipPath1)" x2="50" y1="10"
      /><line y2="36" fill="none" x1="50" clip-path="url(#clipPath1)" x2="41" y1="25"
      /><line y2="36" fill="none" x1="50" clip-path="url(#clipPath1)" x2="59" y1="25"
      /><line y2="16" fill="none" x1="41" clip-path="url(#clipPath1)" x2="59" y1="16"
    /></g
    ><g font-size="11px" transform="translate(397,2)" fill-opacity="1" fill="rgb(122,207,245)" text-rendering="geometricPrecision" image-rendering="optimizeQuality" font-family="sans-serif" stroke="rgb(122,207,245)" stroke-opacity="1"
    ><rect x="0" width="69" height="35" y="0" clip-path="url(#clipPath2)" stroke="none"
    /></g
    ><g stroke-linecap="butt" font-size="11px" transform="translate(397,2)" fill-opacity="1" fill="black" text-rendering="geometricPrecision" image-rendering="optimizeQuality" font-family="sans-serif" stroke-linejoin="round" stroke="black" stroke-opacity="1" stroke-miterlimit="0"
    ><rect fill="none" x="0" width="69" height="35" y="0" clip-path="url(#clipPath2)"
      /><line clip-path="url(#clipPath2)" fill="none" x1="34" x2="34" y1="35" y2="241" stroke-linejoin="bevel" stroke-dasharray="8,3"
    /></g
    ><g font-size="11px" transform="translate(428,67)" fill-opacity="1" fill="rgb(122,207,245)" text-rendering="geometricPrecision" image-rendering="optimizeQuality" font-family="sans-serif" stroke="rgb(122,207,245)" stroke-opacity="1"
    ><rect x="0" width="8" height="40" y="0" clip-path="url(#clipPath3)" stroke="none"
    /></g
    ><g stroke-linecap="butt" font-size="11px" transform="translate(428,67)" fill-opacity="1" fill="black" text-rendering="geometricPrecision" image-rendering="optimizeQuality" font-family="sans-serif" stroke-linejoin="round" stroke="black" stroke-opacity="1" stroke-miterlimit="0"
    ><rect fill="none" x="0" width="8" height="40" y="0" clip-path="url(#clipPath3)"
    /></g
    ><g font-size="11px" transform="translate(428,134)" fill-opacity="1" fill="rgb(122,207,245)" text-rendering="geometricPrecision" image-rendering="optimizeQuality" font-family="sans-serif" stroke="rgb(122,207,245)" stroke-opacity="1"
    ><rect x="0" width="8" height="40" y="0" clip-path="url(#clipPath3)" stroke="none"
    /></g
    ><g stroke-linecap="butt" font-size="11px" transform="translate(428,134)" fill-opacity="1" fill="black" text-rendering="geometricPrecision" image-rendering="optimizeQuality" font-family="sans-serif" stroke-linejoin="round" stroke="black" stroke-opacity="1" stroke-miterlimit="0"
    ><rect fill="none" x="0" width="8" height="40" y="0" clip-path="url(#clipPath3)"
    /></g
    ><g font-size="11px" transform="translate(428,207)" fill-opacity="1" fill="rgb(122,207,245)" text-rendering="geometricPrecision" image-rendering="optimizeQuality" font-family="sans-serif" stroke="rgb(122,207,245)" stroke-opacity="1"
    ><rect x="0" width="8" height="40" y="0" clip-path="url(#clipPath3)" stroke="none"
    /></g
    ><g stroke-linecap="butt" font-size="11px" transform="translate(428,207)" fill-opacity="1" fill="black" text-rendering="geometricPrecision" image-rendering="optimizeQuality" font-family="sans-serif" stroke-linejoin="round" stroke="black" stroke-opacity="1" stroke-miterlimit="0"
    ><rect fill="none" x="0" width="8" height="40" y="0" clip-path="url(#clipPath3)"
    /></g
    ><g font-size="11px" transform="translate(2,37)" fill-opacity="1" fill="black" text-rendering="geometricPrecision" image-rendering="optimizeQuality" font-family="sans-serif" stroke="black" stroke-opacity="1"
    ><text x="10" xml:space="preserve" y="12" clip-path="url(#clipPath4)" stroke="none"
      >Gestor de Organização</text
    ></g
    ><g font-size="11px" transform="translate(397,2)" fill-opacity="1" fill="black" text-rendering="geometricPrecision" image-rendering="optimizeQuality" font-family="sans-serif" stroke="black" stroke-opacity="1"
    ><text x="11" xml:space="preserve" y="12" clip-path="url(#clipPath5)" stroke="none"
      >: Sistema</text
    ></g
    ><g stroke-linecap="butt" font-size="11px" transform="translate(23,17)" fill-opacity="1" fill="black" text-rendering="geometricPrecision" image-rendering="optimizeQuality" font-family="sans-serif" stroke-linejoin="round" stroke="black" stroke-opacity="1"
    ><line y2="50" fill="none" x1="50" clip-path="url(#clipPath7)" x2="405" y1="50"
      /><polygon points=" 405 50 393 44 393 56" clip-path="url(#clipPath7)" stroke="none"
      /><polygon fill="none" points=" 405 50 393 44 393 56" clip-path="url(#clipPath7)"
    /></g
    ><g fill-opacity="1" text-rendering="geometricPrecision" stroke="black" stroke-linecap="butt" transform="translate(23,47)" stroke-miterlimit="0" stroke-opacity="1" fill="black" stroke-dasharray="8,3" font-family="sans-serif" stroke-linejoin="round" font-size="11px" image-rendering="optimizeQuality"
    ><line y2="50" fill="none" x1="405" clip-path="url(#clipPath8)" x2="50" y1="50"
      /><line clip-path="url(#clipPath8)" fill="none" x1="50" x2="62" y1="50" y2="56" stroke-dasharray="none" stroke-miterlimit="10"
      /><line clip-path="url(#clipPath8)" fill="none" x1="50" x2="62" y1="50" y2="44" stroke-dasharray="none" stroke-miterlimit="10"
    /></g
    ><g stroke-linecap="butt" font-size="11px" transform="translate(23,84)" fill-opacity="1" fill="black" text-rendering="geometricPrecision" image-rendering="optimizeQuality" font-family="sans-serif" stroke-linejoin="round" stroke="black" stroke-opacity="1"
    ><line y2="50" fill="none" x1="50" clip-path="url(#clipPath9)" x2="405" y1="50"
      /><polygon points=" 405 50 393 44 393 56" clip-path="url(#clipPath9)" stroke="none"
      /><polygon fill="none" points=" 405 50 393 44 393 56" clip-path="url(#clipPath9)"
    /></g
    ><g fill-opacity="1" text-rendering="geometricPrecision" stroke="black" stroke-linecap="butt" transform="translate(23,114)" stroke-miterlimit="0" stroke-opacity="1" fill="black" stroke-dasharray="8,3" font-family="sans-serif" stroke-linejoin="round" font-size="11px" image-rendering="optimizeQuality"
    ><line y2="50" fill="none" x1="405" clip-path="url(#clipPath10)" x2="50" y1="50"
      /><line clip-path="url(#clipPath10)" fill="none" x1="50" x2="62" y1="50" y2="56" stroke-dasharray="none" stroke-miterlimit="10"
      /><line clip-path="url(#clipPath10)" fill="none" x1="50" x2="62" y1="50" y2="44" stroke-dasharray="none" stroke-miterlimit="10"
    /></g
    ><g stroke-linecap="butt" font-size="11px" transform="translate(23,157)" fill-opacity="1" fill="black" text-rendering="geometricPrecision" image-rendering="optimizeQuality" font-family="sans-serif" stroke-linejoin="round" stroke="black" stroke-opacity="1"
    ><line y2="50" fill="none" x1="50" clip-path="url(#clipPath11)" x2="405" y1="50"
      /><polygon points=" 405 50 393 44 393 56" clip-path="url(#clipPath11)" stroke="none"
      /><polygon fill="none" points=" 405 50 393 44 393 56" clip-path="url(#clipPath11)"
    /></g
    ><g fill-opacity="1" text-rendering="geometricPrecision" stroke="black" stroke-linecap="butt" transform="translate(23,187)" stroke-miterlimit="0" stroke-opacity="1" fill="black" stroke-dasharray="8,3" font-family="sans-serif" stroke-linejoin="round" font-size="11px" image-rendering="optimizeQuality"
    ><line y2="50" fill="none" x1="405" clip-path="url(#clipPath12)" x2="50" y1="50"
      /><line clip-path="url(#clipPath12)" fill="none" x1="50" x2="62" y1="50" y2="56" stroke-dasharray="none" stroke-miterlimit="10"
      /><line clip-path="url(#clipPath12)" fill="none" x1="50" x2="62" y1="50" y2="44" stroke-dasharray="none" stroke-miterlimit="10"
    /></g
    ><g font-size="11px" transform="translate(147,217)" fill-opacity="1" fill="white" text-rendering="geometricPrecision" image-rendering="optimizeQuality" font-family="sans-serif" stroke="white" stroke-opacity="1"
    ><rect x="0" width="205" height="15" y="0" clip-path="url(#clipPath13)" stroke="none"
      /><text fill="black" x="10" xml:space="preserve" y="12" clip-path="url(#clipPath13)" stroke="none"
      >3.1: Operação realizada com sucesso</text
    ></g
    ><g font-size="11px" transform="translate(211,187)" fill-opacity="1" fill="white" text-rendering="geometricPrecision" image-rendering="optimizeQuality" font-family="sans-serif" stroke="white" stroke-opacity="1"
    ><rect x="0" width="77" height="15" y="0" clip-path="url(#clipPath14)" stroke="none"
      /><text fill="black" x="10" xml:space="preserve" y="12" clip-path="url(#clipPath14)" stroke="none"
      >3: Confirma</text
    ></g
    ><g font-size="11px" transform="translate(137,144)" fill-opacity="1" fill="white" text-rendering="geometricPrecision" image-rendering="optimizeQuality" font-family="sans-serif" stroke="white" stroke-opacity="1"
    ><rect x="0" width="225" height="15" y="0" clip-path="url(#clipPath15)" stroke="none"
      /><text fill="black" x="9" xml:space="preserve" y="12" clip-path="url(#clipPath15)" stroke="none"
      >2.1: Apresenta dados e pede confirmação</text
    ></g
    ><g font-size="11px" transform="translate(160,115)" fill-opacity="1" fill="white" text-rendering="geometricPrecision" image-rendering="optimizeQuality" font-family="sans-serif" stroke="white" stroke-opacity="1"
    ><rect x="0" width="178" height="15" y="0" clip-path="url(#clipPath16)" stroke="none"
      /><text fill="black" x="11" xml:space="preserve" y="12" clip-path="url(#clipPath16)" stroke="none"
      >2: Introduz os dados solicitados</text
    ></g
    ><g font-size="11px" transform="translate(86,77)" fill-opacity="1" fill="white" text-rendering="geometricPrecision" image-rendering="optimizeQuality" font-family="sans-serif" stroke="white" stroke-opacity="1"
    ><rect x="0" width="326" height="15" y="0" clip-path="url(#clipPath17)" stroke="none"
      /><text fill="black" x="10" xml:space="preserve" y="12" clip-path="url(#clipPath17)" stroke="none"
      >1.1: Solicita dados (nome, email, função, telemóvel, password)</text
    ></g
    ><g font-size="11px" transform="translate(128,47)" fill-opacity="1" fill="white" text-rendering="geometricPrecision" image-rendering="optimizeQuality" font-family="sans-serif" stroke="white" stroke-opacity="1"
    ><rect x="0" width="243" height="15" y="0" clip-path="url(#clipPath18)" stroke="none"
      /><text fill="black" x="10" xml:space="preserve" y="12" clip-path="url(#clipPath18)" stroke="none"
      >1: Inicia um novo colaborador da organização</text
    ></g
    ><g font-size="8px" fill-opacity="1" fill="rgb(120,120,120)" text-rendering="geometricPrecision" image-rendering="optimizeQuality" stroke="rgb(120,120,120)" stroke-opacity="1"
    ><text x="0" xml:space="preserve" y="10" stroke="none"
      >Visual Paradigm Standard(Luis Neves(Instituto Superior de Engenharia do Porto))</text
    ></g
  ></g
></svg
>
