<?xml version="1.0" encoding="UTF-8"?>
<!DOCTYPE svg PUBLIC '-//W3C//DTD SVG 1.0//EN'
          'http://www.w3.org/TR/2001/REC-SVG-20010904/DTD/svg10.dtd'>
<svg fill-opacity="0" xmlns:xlink="http://www.w3.org/1999/xlink" color-rendering="auto" color-interpolation="auto" text-rendering="auto" stroke="rgb(0,0,0)" stroke-linecap="square" width="1097" stroke-miterlimit="10" shape-rendering="auto" stroke-opacity="0" fill="rgb(0,0,0)" stroke-dasharray="none" font-weight="normal" stroke-width="1" height="705" xmlns="http://www.w3.org/2000/svg" font-family="'Dialog'" font-style="normal" stroke-linejoin="miter" font-size="12px" stroke-dashoffset="0" image-rendering="auto"
><!--Generated by the Batik Graphics2D SVG Generator--><defs id="genericDefs"
  /><g
  ><defs id="defs1"
    ><clipPath clipPathUnits="userSpaceOnUse" id="clipPath1"
      ><path d="M-7 -7 L152 -7 L152 51 L-7 51 L-7 -7 Z"
      /></clipPath
      ><clipPath clipPathUnits="userSpaceOnUse" id="clipPath2"
      ><path d="M0 0 L0 25 L141 25 L141 0 Z"
      /></clipPath
      ><clipPath clipPathUnits="userSpaceOnUse" id="clipPath3"
      ><path d="M0 0 L0 15 L141 15 L141 0 Z"
      /></clipPath
      ><clipPath clipPathUnits="userSpaceOnUse" id="clipPath4"
      ><path d="M-7 -7 L447 -7 L447 79 L-7 79 L-7 -7 Z"
      /></clipPath
      ><clipPath clipPathUnits="userSpaceOnUse" id="clipPath5"
      ><path d="M0 0 L0 53 L436 53 L436 0 Z"
      /></clipPath
      ><clipPath clipPathUnits="userSpaceOnUse" id="clipPath6"
      ><path d="M0 0 L0 15 L436 15 L436 0 Z"
      /></clipPath
      ><clipPath clipPathUnits="userSpaceOnUse" id="clipPath7"
      ><path d="M-7 -7 L221 -7 L221 98 L-7 98 L-7 -7 Z"
      /></clipPath
      ><clipPath clipPathUnits="userSpaceOnUse" id="clipPath8"
      ><path d="M0 0 L0 72 L210 72 L210 0 Z"
      /></clipPath
      ><clipPath clipPathUnits="userSpaceOnUse" id="clipPath9"
      ><path d="M0 0 L0 15 L210 15 L210 0 Z"
      /></clipPath
      ><clipPath clipPathUnits="userSpaceOnUse" id="clipPath10"
      ><path d="M-7 -7 L463 -7 L463 188 L-7 188 L-7 -7 Z"
      /></clipPath
      ><clipPath clipPathUnits="userSpaceOnUse" id="clipPath11"
      ><path d="M0 0 L0 162 L452 162 L452 0 Z"
      /></clipPath
      ><clipPath clipPathUnits="userSpaceOnUse" id="clipPath12"
      ><path d="M0 0 L0 15 L452 15 L452 0 Z"
      /></clipPath
      ><clipPath clipPathUnits="userSpaceOnUse" id="clipPath13"
      ><path d="M-7 -7 L124 -7 L124 94 L-7 94 L-7 -7 Z"
      /></clipPath
      ><clipPath clipPathUnits="userSpaceOnUse" id="clipPath14"
      ><path d="M0 0 L0 68 L113 68 L113 0 Z"
      /></clipPath
      ><clipPath clipPathUnits="userSpaceOnUse" id="clipPath15"
      ><path d="M0 0 L0 15 L113 15 L113 0 Z"
      /></clipPath
      ><clipPath clipPathUnits="userSpaceOnUse" id="clipPath16"
      ><path d="M-7 -7 L458 -7 L458 51 L-7 51 L-7 -7 Z"
      /></clipPath
      ><clipPath clipPathUnits="userSpaceOnUse" id="clipPath17"
      ><path d="M0 0 L0 25 L447 25 L447 0 Z"
      /></clipPath
      ><clipPath clipPathUnits="userSpaceOnUse" id="clipPath18"
      ><path d="M0 0 L0 15 L447 15 L447 0 Z"
      /></clipPath
      ><clipPath clipPathUnits="userSpaceOnUse" id="clipPath19"
      ><path d="M-7 -7 L117 -7 L117 64 L-7 64 L-7 -7 Z"
      /></clipPath
      ><clipPath clipPathUnits="userSpaceOnUse" id="clipPath20"
      ><path d="M0 0 L0 38 L106 38 L106 0 Z"
      /></clipPath
      ><clipPath clipPathUnits="userSpaceOnUse" id="clipPath21"
      ><path d="M0 0 L0 15 L106 15 L106 0 Z"
      /></clipPath
      ><clipPath clipPathUnits="userSpaceOnUse" id="clipPath22"
      ><path d="M-7 -7 L120 -7 L120 51 L-7 51 L-7 -7 Z"
      /></clipPath
      ><clipPath clipPathUnits="userSpaceOnUse" id="clipPath23"
      ><path d="M0 0 L0 25 L109 25 L109 0 Z"
      /></clipPath
      ><clipPath clipPathUnits="userSpaceOnUse" id="clipPath24"
      ><path d="M0 0 L0 15 L109 15 L109 0 Z"
      /></clipPath
      ><clipPath clipPathUnits="userSpaceOnUse" id="clipPath25"
      ><path d="M-7 -7 L38 -7 L38 26 L-7 26 L-7 -7 Z"
      /></clipPath
      ><clipPath clipPathUnits="userSpaceOnUse" id="clipPath26"
      ><path d="M0 0 L0 15 L27 15 L27 0 Z"
      /></clipPath
      ><clipPath clipPathUnits="userSpaceOnUse" id="clipPath27"
      ><path d="M-7 -7 L36 -7 L36 26 L-7 26 L-7 -7 Z"
      /></clipPath
      ><clipPath clipPathUnits="userSpaceOnUse" id="clipPath28"
      ><path d="M0 0 L0 15 L25 15 L25 0 Z"
      /></clipPath
      ><clipPath clipPathUnits="userSpaceOnUse" id="clipPath29"
      ><path d="M-7 -7 L48 -7 L48 26 L-7 26 L-7 -7 Z"
      /></clipPath
      ><clipPath clipPathUnits="userSpaceOnUse" id="clipPath30"
      ><path d="M0 0 L0 15 L37 15 L37 0 Z"
      /></clipPath
      ><clipPath clipPathUnits="userSpaceOnUse" id="clipPath31"
      ><path d="M0 0 L104 0 L104 175 L0 175 L0 0 Z"
      /></clipPath
      ><clipPath clipPathUnits="userSpaceOnUse" id="clipPath32"
      ><path d="M0 0 L0 175 L104 175 L104 0 Z"
      /></clipPath
      ><clipPath clipPathUnits="userSpaceOnUse" id="clipPath33"
      ><path d="M0 0 L104 0 L104 243 L0 243 L0 0 Z"
      /></clipPath
      ><clipPath clipPathUnits="userSpaceOnUse" id="clipPath34"
      ><path d="M0 0 L0 243 L104 243 L104 0 Z"
      /></clipPath
      ><clipPath clipPathUnits="userSpaceOnUse" id="clipPath35"
      ><path d="M0 0 L104 0 L104 231 L0 231 L0 0 Z"
      /></clipPath
      ><clipPath clipPathUnits="userSpaceOnUse" id="clipPath36"
      ><path d="M0 0 L0 231 L104 231 L104 0 Z"
      /></clipPath
      ><clipPath clipPathUnits="userSpaceOnUse" id="clipPath37"
      ><path d="M0 0 L282 0 L282 116 L0 116 L0 0 Z"
      /></clipPath
      ><clipPath clipPathUnits="userSpaceOnUse" id="clipPath38"
      ><path d="M0 0 L0 116 L282 116 L282 0 Z"
      /></clipPath
      ><clipPath clipPathUnits="userSpaceOnUse" id="clipPath39"
      ><path d="M0 0 L158 0 L158 134 L0 134 L0 0 Z"
      /></clipPath
      ><clipPath clipPathUnits="userSpaceOnUse" id="clipPath40"
      ><path d="M124 76 L124 91 L72 91 L72 76 ZM0 0 L0 134 L158 134 L158 0 Z"
      /></clipPath
      ><clipPath clipPathUnits="userSpaceOnUse" id="clipPath41"
      ><path d="M0 0 L0 106 L34 106 L34 121 L0 121 L0 231 L104 231 L104 111 L58 111 L58 90 L104 90 L104 0 Z"
      /></clipPath
      ><clipPath clipPathUnits="userSpaceOnUse" id="clipPath42"
      ><path d="M89 106 L89 121 L50 121 L50 106 ZM0 0 L0 231 L104 231 L104 0 Z"
      /></clipPath
      ><clipPath clipPathUnits="userSpaceOnUse" id="clipPath43"
      ><path d="M0 0 L231 0 L231 213 L0 213 L0 0 Z"
      /></clipPath
      ><clipPath clipPathUnits="userSpaceOnUse" id="clipPath44"
      ><path d="M0 0 L0 213 L231 213 L231 0 Z"
      /></clipPath
      ><clipPath clipPathUnits="userSpaceOnUse" id="clipPath45"
      ><path d="M0 0 L141 0 L141 266 L0 266 L0 0 Z"
      /></clipPath
      ><clipPath clipPathUnits="userSpaceOnUse" id="clipPath46"
      ><path d="M0 0 L0 266 L141 266 L141 0 Z"
      /></clipPath
      ><clipPath clipPathUnits="userSpaceOnUse" id="clipPath47"
      ><path d="M0 0 L230 0 L230 538 L0 538 L0 0 Z"
      /></clipPath
      ><clipPath clipPathUnits="userSpaceOnUse" id="clipPath48"
      ><path d="M0 0 L0 538 L230 538 L230 427 L191 427 L191 412 L230 412 L230 0 Z"
      /></clipPath
      ><clipPath clipPathUnits="userSpaceOnUse" id="clipPath49"
      ><path d="M-52 -15 L104 -15 L104 30 L-52 30 L-52 -15 Z"
      /></clipPath
      ><clipPath clipPathUnits="userSpaceOnUse" id="clipPath50"
      ><path d="M-39 -15 L78 -15 L78 30 L-39 30 L-39 -15 Z"
      /></clipPath
      ><clipPath clipPathUnits="userSpaceOnUse" id="clipPath51"
      ><path d="M-63 -21 L126 -21 L126 42 L-63 42 L-63 -21 Z"
      /></clipPath
    ></defs
    ><g fill="white" text-rendering="geometricPrecision" fill-opacity="1" stroke-opacity="1" stroke="white"
    ><rect x="0" width="1097" height="705" y="0" stroke="none"
    /></g
    ><g font-size="11px" transform="translate(362,2)" fill-opacity="1" fill="rgb(122,207,245)" text-rendering="geometricPrecision" image-rendering="optimizeQuality" font-family="sans-serif" stroke="rgb(122,207,245)" font-weight="bold" stroke-opacity="1"
    ><rect x="0" width="141" height="40" y="0" clip-path="url(#clipPath1)" stroke="none"
    /></g
    ><g fill-opacity="1" text-rendering="geometricPrecision" stroke="black" stroke-linecap="butt" transform="translate(362,2)" stroke-miterlimit="0" stroke-opacity="1" fill="black" font-weight="bold" font-family="sans-serif" stroke-linejoin="round" font-size="11px" image-rendering="optimizeQuality"
    ><rect fill="none" x="0" width="141" height="40" y="0" clip-path="url(#clipPath1)"
      /><line y2="15" fill="none" x1="0" clip-path="url(#clipPath1)" x2="141" y1="15"
    /></g
    ><g font-size="11px" transform="translate(362,2)" fill-opacity="1" fill="black" text-rendering="geometricPrecision" image-rendering="optimizeQuality" font-family="sans-serif" stroke="black" font-weight="bold" stroke-opacity="1"
    ><text x="5" xml:space="preserve" y="12" clip-path="url(#clipPath3)" stroke="none"
      >EspecificaColaboradorUI</text
    ></g
    ><g font-size="11px" transform="translate(237,115)" fill-opacity="1" fill="rgb(122,207,245)" text-rendering="geometricPrecision" image-rendering="optimizeQuality" font-family="sans-serif" stroke="rgb(122,207,245)" font-weight="bold" stroke-opacity="1"
    ><rect x="0" width="436" height="68" y="0" clip-path="url(#clipPath4)" stroke="none"
    /></g
    ><g fill-opacity="1" text-rendering="geometricPrecision" stroke="black" stroke-linecap="butt" transform="translate(237,115)" stroke-miterlimit="0" stroke-opacity="1" fill="black" font-weight="bold" font-family="sans-serif" stroke-linejoin="round" font-size="11px" image-rendering="optimizeQuality"
    ><rect fill="none" x="0" width="436" height="68" y="0" clip-path="url(#clipPath4)"
      /><line y2="15" fill="none" x1="0" clip-path="url(#clipPath4)" x2="436" y1="15"
    /></g
    ><g font-size="11px" transform="matrix(1,0,0,1,237,130)" fill-opacity="1" fill="black" text-rendering="geometricPrecision" image-rendering="optimizeQuality" font-family="sans-serif" stroke="black" stroke-opacity="1"
    ><text x="2" xml:space="preserve" y="14" clip-path="url(#clipPath5)" stroke="none"
      >+novoColaborador(String strNome, String strFuncao, String strTelefone, String strEmail)</text
    ></g
    ><g font-size="11px" transform="matrix(1,0,0,1,237,130)" fill-opacity="1" fill="black" text-rendering="geometricPrecision" image-rendering="optimizeQuality" font-family="sans-serif" stroke="black" stroke-opacity="1"
    ><text x="2" xml:space="preserve" y="29" clip-path="url(#clipPath5)" stroke="none"
      >+registaNovoColaborador()</text
    ></g
    ><g font-size="11px" transform="matrix(1,0,0,1,237,130)" fill-opacity="1" fill="black" text-rendering="geometricPrecision" image-rendering="optimizeQuality" font-family="sans-serif" stroke="black" stroke-opacity="1"
    ><text x="2" xml:space="preserve" y="44" clip-path="url(#clipPath5)" stroke="none"
      >+colaboradorToString()</text
    ></g
    ><g font-size="11px" transform="translate(237,115)" fill-opacity="1" fill="black" text-rendering="geometricPrecision" image-rendering="optimizeQuality" font-family="sans-serif" stroke="black" font-weight="bold" stroke-opacity="1"
    ><text x="129" xml:space="preserve" y="12" clip-path="url(#clipPath6)" stroke="none"
      >EspecificarColaboradorController</text
    ></g
    ><g font-size="11px" transform="translate(853,195)" fill-opacity="1" fill="rgb(122,207,245)" text-rendering="geometricPrecision" image-rendering="optimizeQuality" font-family="sans-serif" stroke="rgb(122,207,245)" font-weight="bold" stroke-opacity="1"
    ><rect x="0" width="210" height="87" y="0" clip-path="url(#clipPath7)" stroke="none"
    /></g
    ><g fill-opacity="1" text-rendering="geometricPrecision" stroke="black" stroke-linecap="butt" transform="translate(853,195)" stroke-miterlimit="0" stroke-opacity="1" fill="black" font-weight="bold" font-family="sans-serif" stroke-linejoin="round" font-size="11px" image-rendering="optimizeQuality"
    ><rect fill="none" x="0" width="210" height="87" y="0" clip-path="url(#clipPath7)"
      /><line y2="15" fill="none" x1="0" clip-path="url(#clipPath7)" x2="210" y1="15"
    /></g
    ><g font-size="11px" transform="matrix(1,0,0,1,853,210)" fill-opacity="1" fill="black" text-rendering="geometricPrecision" image-rendering="optimizeQuality" font-family="sans-serif" stroke="black" stroke-opacity="1"
    ><text x="2" xml:space="preserve" y="14" clip-path="url(#clipPath8)" stroke="none"
      >-String m_strDesignacao</text
    ></g
    ><g stroke-linecap="butt" font-size="11px" transform="matrix(1,0,0,1,853,210)" fill-opacity="1" fill="black" text-rendering="geometricPrecision" image-rendering="optimizeQuality" font-family="sans-serif" stroke-linejoin="bevel" stroke="black" stroke-opacity="1" stroke-miterlimit="0"
    ><line y2="19" fill="none" x1="0" clip-path="url(#clipPath8)" x2="210" y1="19"
    /></g
    ><g font-size="11px" transform="matrix(1,0,0,1,853,210)" fill-opacity="1" fill="black" text-rendering="geometricPrecision" image-rendering="optimizeQuality" font-family="sans-serif" stroke="black" stroke-opacity="1"
    ><text x="2" xml:space="preserve" y="33" clip-path="url(#clipPath8)" stroke="none"
      >+Organizacao getOrganizacao()</text
    ></g
    ><g font-size="11px" transform="matrix(1,0,0,1,853,210)" fill-opacity="1" fill="black" text-rendering="geometricPrecision" image-rendering="optimizeQuality" font-family="sans-serif" stroke="black" stroke-opacity="1"
    ><text x="2" xml:space="preserve" y="48" clip-path="url(#clipPath8)" stroke="none"
      >+gerarPassword()</text
    ></g
    ><g font-size="11px" transform="matrix(1,0,0,1,853,210)" fill-opacity="1" fill="black" text-rendering="geometricPrecision" image-rendering="optimizeQuality" font-family="sans-serif" stroke="black" stroke-opacity="1"
    ><text x="2" xml:space="preserve" y="63" clip-path="url(#clipPath8)" stroke="none"
      >+enviarEmail(String emailC, Stiring pswd)</text
    ></g
    ><g font-size="11px" transform="translate(853,195)" fill-opacity="1" fill="black" text-rendering="geometricPrecision" image-rendering="optimizeQuality" font-family="sans-serif" stroke="black" font-weight="bold" stroke-opacity="1"
    ><text x="76" xml:space="preserve" y="12" clip-path="url(#clipPath9)" stroke="none"
      >Plataforma</text
    ></g
    ><g font-size="11px" transform="translate(345,312)" fill-opacity="1" fill="rgb(122,207,245)" text-rendering="geometricPrecision" image-rendering="optimizeQuality" font-family="sans-serif" stroke="rgb(122,207,245)" font-weight="bold" stroke-opacity="1"
    ><rect x="0" width="452" height="177" y="0" clip-path="url(#clipPath10)" stroke="none"
    /></g
    ><g fill-opacity="1" text-rendering="geometricPrecision" stroke="black" stroke-linecap="butt" transform="translate(345,312)" stroke-miterlimit="0" stroke-opacity="1" fill="black" font-weight="bold" font-family="sans-serif" stroke-linejoin="round" font-size="11px" image-rendering="optimizeQuality"
    ><rect fill="none" x="0" width="452" height="177" y="0" clip-path="url(#clipPath10)"
      /><line y2="15" fill="none" x1="0" clip-path="url(#clipPath10)" x2="452" y1="15"
    /></g
    ><g font-size="11px" transform="matrix(1,0,0,1,345,327)" fill-opacity="1" fill="black" text-rendering="geometricPrecision" image-rendering="optimizeQuality" font-family="sans-serif" stroke="black" stroke-opacity="1"
    ><text x="2" xml:space="preserve" y="14" clip-path="url(#clipPath11)" stroke="none"
      >-String m_strNome</text
    ></g
    ><g font-size="11px" transform="matrix(1,0,0,1,345,327)" fill-opacity="1" fill="black" text-rendering="geometricPrecision" image-rendering="optimizeQuality" font-family="sans-serif" stroke="black" stroke-opacity="1"
    ><text x="2" xml:space="preserve" y="29" clip-path="url(#clipPath11)" stroke="none"
      >-String m_strNIF</text
    ></g
    ><g font-size="11px" transform="matrix(1,0,0,1,345,327)" fill-opacity="1" fill="black" text-rendering="geometricPrecision" image-rendering="optimizeQuality" font-family="sans-serif" stroke="black" stroke-opacity="1"
    ><text x="2" xml:space="preserve" y="44" clip-path="url(#clipPath11)" stroke="none"
      >-String m_oEnderecoPostal</text
    ></g
    ><g font-size="11px" transform="matrix(1,0,0,1,345,327)" fill-opacity="1" fill="black" text-rendering="geometricPrecision" image-rendering="optimizeQuality" font-family="sans-serif" stroke="black" stroke-opacity="1"
    ><text x="2" xml:space="preserve" y="59" clip-path="url(#clipPath11)" stroke="none"
      >-String m_strWebsite</text
    ></g
    ><g font-size="11px" transform="matrix(1,0,0,1,345,327)" fill-opacity="1" fill="black" text-rendering="geometricPrecision" image-rendering="optimizeQuality" font-family="sans-serif" stroke="black" stroke-opacity="1"
    ><text x="2" xml:space="preserve" y="74" clip-path="url(#clipPath11)" stroke="none"
      >-String m_strTelefone</text
    ></g
    ><g font-size="11px" transform="matrix(1,0,0,1,345,327)" fill-opacity="1" fill="black" text-rendering="geometricPrecision" image-rendering="optimizeQuality" font-family="sans-serif" stroke="black" stroke-opacity="1"
    ><text x="2" xml:space="preserve" y="89" clip-path="url(#clipPath11)" stroke="none"
      >-String m_strEmail</text
      ><line stroke-linecap="butt" clip-path="url(#clipPath11)" fill="none" x1="0" x2="452" y1="94" y2="94" stroke-linejoin="bevel" stroke-miterlimit="0"
    /></g
    ><g font-size="11px" transform="matrix(1,0,0,1,345,327)" fill-opacity="1" fill="black" text-rendering="geometricPrecision" image-rendering="optimizeQuality" font-family="sans-serif" stroke="black" stroke-opacity="1"
    ><text x="2" xml:space="preserve" y="108" clip-path="url(#clipPath11)" stroke="none"
      >+novoColaborador(String strNome, String strFuncao, String strTelefone, String strEmail)</text
    ></g
    ><g font-size="11px" transform="matrix(1,0,0,1,345,327)" fill-opacity="1" fill="black" text-rendering="geometricPrecision" image-rendering="optimizeQuality" font-family="sans-serif" stroke="black" stroke-opacity="1"
    ><text x="2" xml:space="preserve" y="123" clip-path="url(#clipPath11)" stroke="none"
      >+addColaborador(Colaborador colaborador)</text
    ></g
    ><g font-size="11px" transform="matrix(1,0,0,1,345,327)" fill-opacity="1" fill="black" text-rendering="geometricPrecision" image-rendering="optimizeQuality" font-family="sans-serif" stroke="black" stroke-opacity="1"
    ><text x="2" xml:space="preserve" y="138" clip-path="url(#clipPath11)" stroke="none"
      >+registaColaborador(Colaborador colaborador, String password, Organizacao organizacao)</text
    ></g
    ><g font-size="11px" transform="matrix(1,0,0,1,345,327)" fill-opacity="1" fill="black" text-rendering="geometricPrecision" image-rendering="optimizeQuality" font-family="sans-serif" stroke="black" stroke-opacity="1"
    ><text x="2" xml:space="preserve" y="153" clip-path="url(#clipPath11)" stroke="none"
      >+validaColaborador(Colaborador colaborador, String password)</text
    ></g
    ><g font-size="11px" transform="translate(345,312)" fill-opacity="1" fill="black" text-rendering="geometricPrecision" image-rendering="optimizeQuality" font-family="sans-serif" stroke="black" font-weight="bold" stroke-opacity="1"
    ><text x="192" xml:space="preserve" y="12" clip-path="url(#clipPath12)" stroke="none"
      >Organização</text
    ></g
    ><g font-size="11px" transform="translate(436,618)" fill-opacity="1" fill="rgb(122,207,245)" text-rendering="geometricPrecision" image-rendering="optimizeQuality" font-family="sans-serif" stroke="rgb(122,207,245)" font-weight="bold" stroke-opacity="1"
    ><rect x="0" width="113" height="83" y="0" clip-path="url(#clipPath13)" stroke="none"
    /></g
    ><g fill-opacity="1" text-rendering="geometricPrecision" stroke="black" stroke-linecap="butt" transform="translate(436,618)" stroke-miterlimit="0" stroke-opacity="1" fill="black" font-weight="bold" font-family="sans-serif" stroke-linejoin="round" font-size="11px" image-rendering="optimizeQuality"
    ><rect fill="none" x="0" width="113" height="83" y="0" clip-path="url(#clipPath13)"
      /><line y2="15" fill="none" x1="0" clip-path="url(#clipPath13)" x2="113" y1="15"
    /></g
    ><g font-size="11px" transform="matrix(1,0,0,1,436,633)" fill-opacity="1" fill="black" text-rendering="geometricPrecision" image-rendering="optimizeQuality" font-family="sans-serif" stroke="black" stroke-opacity="1"
    ><text x="2" xml:space="preserve" y="14" clip-path="url(#clipPath14)" stroke="none"
      >-String m_strNome</text
    ></g
    ><g font-size="11px" transform="matrix(1,0,0,1,436,633)" fill-opacity="1" fill="black" text-rendering="geometricPrecision" image-rendering="optimizeQuality" font-family="sans-serif" stroke="black" stroke-opacity="1"
    ><text x="2" xml:space="preserve" y="29" clip-path="url(#clipPath14)" stroke="none"
      >-String m_strFuncao</text
    ></g
    ><g font-size="11px" transform="matrix(1,0,0,1,436,633)" fill-opacity="1" fill="black" text-rendering="geometricPrecision" image-rendering="optimizeQuality" font-family="sans-serif" stroke="black" stroke-opacity="1"
    ><text x="2" xml:space="preserve" y="44" clip-path="url(#clipPath14)" stroke="none"
      >-String m_strTelefone</text
    ></g
    ><g font-size="11px" transform="matrix(1,0,0,1,436,633)" fill-opacity="1" fill="black" text-rendering="geometricPrecision" image-rendering="optimizeQuality" font-family="sans-serif" stroke="black" stroke-opacity="1"
    ><text x="2" xml:space="preserve" y="59" clip-path="url(#clipPath14)" stroke="none"
      >-String m_strEmail</text
    ></g
    ><g font-size="11px" transform="translate(436,618)" fill-opacity="1" fill="black" text-rendering="geometricPrecision" image-rendering="optimizeQuality" font-family="sans-serif" stroke="black" font-weight="bold" stroke-opacity="1"
    ><text x="23" xml:space="preserve" y="12" clip-path="url(#clipPath15)" stroke="none"
      >Colaborador</text
    ></g
    ><g font-size="11px" transform="translate(646,630)" fill-opacity="1" fill="rgb(122,207,245)" text-rendering="geometricPrecision" image-rendering="optimizeQuality" font-family="sans-serif" stroke="rgb(122,207,245)" font-weight="bold" stroke-opacity="1"
    ><rect x="0" width="447" height="40" y="0" clip-path="url(#clipPath16)" stroke="none"
    /></g
    ><g fill-opacity="1" text-rendering="geometricPrecision" stroke="black" stroke-linecap="butt" transform="translate(646,630)" stroke-miterlimit="0" stroke-opacity="1" fill="black" font-weight="bold" font-family="sans-serif" stroke-linejoin="round" font-size="11px" image-rendering="optimizeQuality"
    ><rect fill="none" x="0" width="447" height="40" y="0" clip-path="url(#clipPath16)"
      /><line y2="15" fill="none" x1="0" clip-path="url(#clipPath16)" x2="447" y1="15"
    /></g
    ><g font-size="11px" transform="matrix(1,0,0,1,646,645)" fill-opacity="1" fill="black" text-rendering="geometricPrecision" image-rendering="optimizeQuality" font-family="sans-serif" stroke="black" stroke-opacity="1"
    ><text x="2" xml:space="preserve" y="14" clip-path="url(#clipPath17)" stroke="none"
      >+registaUtilizadorComPapeis(String strNome, String strEmail, String strPassword, String[])</text
    ></g
    ><g font-size="11px" transform="translate(646,630)" fill-opacity="1" fill="black" text-rendering="geometricPrecision" image-rendering="optimizeQuality" font-family="sans-serif" stroke="black" font-weight="bold" stroke-opacity="1"
    ><text x="173" xml:space="preserve" y="12" clip-path="url(#clipPath18)" stroke="none"
      >AutorizacaoFacade</text
    ></g
    ><g font-size="11px" transform="translate(2,294)" fill-opacity="1" fill="rgb(122,207,245)" text-rendering="geometricPrecision" image-rendering="optimizeQuality" font-family="sans-serif" stroke="rgb(122,207,245)" font-weight="bold" stroke-opacity="1"
    ><rect x="0" width="106" height="53" y="0" clip-path="url(#clipPath19)" stroke="none"
    /></g
    ><g fill-opacity="1" text-rendering="geometricPrecision" stroke="black" stroke-linecap="butt" transform="translate(2,294)" stroke-miterlimit="0" stroke-opacity="1" fill="black" font-weight="bold" font-family="sans-serif" stroke-linejoin="round" font-size="11px" image-rendering="optimizeQuality"
    ><rect fill="none" x="0" width="106" height="53" y="0" clip-path="url(#clipPath19)"
      /><line y2="15" fill="none" x1="0" clip-path="url(#clipPath19)" x2="106" y1="15"
    /></g
    ><g font-size="11px" transform="matrix(1,0,0,1,2,309)" fill-opacity="1" fill="black" text-rendering="geometricPrecision" image-rendering="optimizeQuality" font-family="sans-serif" stroke="black" stroke-opacity="1"
    ><text x="2" xml:space="preserve" y="14" clip-path="url(#clipPath20)" stroke="none"
      >+static getInstance()</text
    ></g
    ><g font-size="11px" transform="matrix(1,0,0,1,2,309)" fill-opacity="1" fill="black" text-rendering="geometricPrecision" image-rendering="optimizeQuality" font-family="sans-serif" stroke="black" stroke-opacity="1"
    ><text x="2" xml:space="preserve" y="29" clip-path="url(#clipPath20)" stroke="none"
      >+getSessaoAtual()</text
    ></g
    ><g font-size="11px" transform="translate(2,294)" fill-opacity="1" fill="black" text-rendering="geometricPrecision" image-rendering="optimizeQuality" font-family="sans-serif" stroke="black" font-weight="bold" stroke-opacity="1"
    ><text x="15" xml:space="preserve" y="12" clip-path="url(#clipPath21)" stroke="none"
      >AplicacaoPOT</text
    ></g
    ><g font-size="11px" transform="translate(122,347)" fill-opacity="1" fill="rgb(122,207,245)" text-rendering="geometricPrecision" image-rendering="optimizeQuality" font-family="sans-serif" stroke="rgb(122,207,245)" font-weight="bold" stroke-opacity="1"
    ><rect x="0" width="109" height="40" y="0" clip-path="url(#clipPath22)" stroke="none"
    /></g
    ><g fill-opacity="1" text-rendering="geometricPrecision" stroke="black" stroke-linecap="butt" transform="translate(122,347)" stroke-miterlimit="0" stroke-opacity="1" fill="black" font-weight="bold" font-family="sans-serif" stroke-linejoin="round" font-size="11px" image-rendering="optimizeQuality"
    ><rect fill="none" x="0" width="109" height="40" y="0" clip-path="url(#clipPath22)"
      /><line y2="15" fill="none" x1="0" clip-path="url(#clipPath22)" x2="109" y1="15"
    /></g
    ><g font-size="11px" transform="matrix(1,0,0,1,122,362)" fill-opacity="1" fill="black" text-rendering="geometricPrecision" image-rendering="optimizeQuality" font-family="sans-serif" stroke="black" stroke-opacity="1"
    ><text x="2" xml:space="preserve" y="14" clip-path="url(#clipPath23)" stroke="none"
      >+getEmailUtilizador()</text
    ></g
    ><g font-size="11px" transform="translate(122,347)" fill-opacity="1" fill="black" text-rendering="geometricPrecision" image-rendering="optimizeQuality" font-family="sans-serif" stroke="black" font-weight="bold" stroke-opacity="1"
    ><text x="10" xml:space="preserve" y="12" clip-path="url(#clipPath24)" stroke="none"
      >SessaoUtilizador</text
    ></g
    ><g font-size="11px" transform="translate(828,292)" fill-opacity="1" fill="black" text-rendering="geometricPrecision" image-rendering="optimizeQuality" font-family="sans-serif" stroke="black" stroke-opacity="1"
    ><text x="10" xml:space="preserve" y="12" clip-path="url(#clipPath26)" stroke="none"
      >1</text
    ></g
    ><g font-size="11px" transform="translate(793,288)" fill-opacity="1" fill="black" text-rendering="geometricPrecision" image-rendering="optimizeQuality" font-family="sans-serif" stroke="black" stroke-opacity="1"
    ><text x="10" xml:space="preserve" y="12" clip-path="url(#clipPath28)" stroke="none"
      >*</text
    ></g
    ><g font-size="11px" transform="translate(447,489)" fill-opacity="1" fill="black" text-rendering="geometricPrecision" image-rendering="optimizeQuality" font-family="sans-serif" stroke="black" stroke-opacity="1"
    ><text x="10" xml:space="preserve" y="12" clip-path="url(#clipPath26)" stroke="none"
      >1</text
    ></g
    ><g font-size="11px" transform="translate(417,589)" fill-opacity="1" fill="black" text-rendering="geometricPrecision" image-rendering="optimizeQuality" font-family="sans-serif" stroke="black" stroke-opacity="1"
    ><text x="10" xml:space="preserve" y="12" clip-path="url(#clipPath30)" stroke="none"
      >1..*</text
    ></g
    ><g font-size="11px" transform="translate(502,489)" fill-opacity="1" fill="black" text-rendering="geometricPrecision" image-rendering="optimizeQuality" font-family="sans-serif" stroke="black" stroke-opacity="1"
    ><text x="10" xml:space="preserve" y="12" clip-path="url(#clipPath26)" stroke="none"
      >1</text
    ></g
    ><g font-size="11px" transform="translate(476,599)" fill-opacity="1" fill="black" text-rendering="geometricPrecision" image-rendering="optimizeQuality" font-family="sans-serif" stroke="black" stroke-opacity="1"
    ><text x="10" xml:space="preserve" y="12" clip-path="url(#clipPath26)" stroke="none"
      >1</text
    ></g
    ><g fill-opacity="1" text-rendering="geometricPrecision" stroke="black" stroke-linecap="butt" transform="translate(374,-7)" stroke-opacity="1" fill="black" stroke-dasharray="5" font-family="sans-serif" stroke-linejoin="round" font-size="11px" stroke-dashoffset="1" image-rendering="optimizeQuality"
    ><line y2="121" fill="none" x1="50" clip-path="url(#clipPath32)" x2="50" y1="50"
      /><line clip-path="url(#clipPath32)" stroke-dashoffset="0" fill="none" x1="50" x2="56" y1="121" y2="109" stroke-dasharray="none"
      /><line clip-path="url(#clipPath32)" stroke-dashoffset="0" fill="none" x1="50" x2="44" y1="121" y2="109" stroke-dasharray="none"
    /></g
    ><g fill-opacity="1" text-rendering="geometricPrecision" stroke="black" stroke-linecap="butt" transform="translate(620,440)" stroke-opacity="1" fill="black" stroke-dasharray="5" font-family="sans-serif" stroke-linejoin="round" font-size="11px" stroke-dashoffset="1" image-rendering="optimizeQuality"
    ><line y2="189" fill="none" x1="50" clip-path="url(#clipPath34)" x2="50" y1="50"
      /><line clip-path="url(#clipPath34)" stroke-dashoffset="0" fill="none" x1="50" x2="56" y1="189" y2="177" stroke-dasharray="none"
      /><line clip-path="url(#clipPath34)" stroke-dashoffset="0" fill="none" x1="50" x2="44" y1="189" y2="177" stroke-dasharray="none"
    /></g
    ><g fill-opacity="1" text-rendering="geometricPrecision" stroke="black" stroke-linecap="butt" transform="translate(366,134)" stroke-opacity="1" fill="black" stroke-dasharray="5" font-family="sans-serif" stroke-linejoin="round" font-size="11px" stroke-dashoffset="1" image-rendering="optimizeQuality"
    ><line y2="177" fill="none" x1="50" clip-path="url(#clipPath36)" x2="50" y1="50"
      /><line clip-path="url(#clipPath36)" stroke-dashoffset="0" fill="none" x1="50" x2="56" y1="177" y2="165" stroke-dasharray="none"
      /><line clip-path="url(#clipPath36)" stroke-dashoffset="0" fill="none" x1="50" x2="44" y1="177" y2="165" stroke-dasharray="none"
    /></g
    ><g fill-opacity="1" text-rendering="geometricPrecision" stroke="black" stroke-linecap="butt" transform="translate(624,133)" stroke-opacity="1" fill="black" stroke-dasharray="5" font-family="sans-serif" stroke-linejoin="round" font-size="11px" stroke-dashoffset="1" image-rendering="optimizeQuality"
    ><line y2="62" fill="none" x1="50" clip-path="url(#clipPath38)" x2="228" y1="50"
      /><line clip-path="url(#clipPath38)" stroke-dashoffset="0" fill="none" x1="228" x2="216" y1="62" y2="55" stroke-dasharray="none"
      /><line clip-path="url(#clipPath38)" stroke-dashoffset="0" fill="none" x1="228" x2="215" y1="62" y2="67" stroke-dasharray="none"
    /></g
    ><g fill-opacity="1" text-rendering="geometricPrecision" stroke="black" stroke-linecap="butt" transform="translate(748,232)" stroke-opacity="1" fill="black" stroke-dasharray="5" font-family="sans-serif" stroke-linejoin="round" font-size="11px" stroke-dashoffset="1" image-rendering="optimizeQuality"
    ><line y2="80" fill="none" x1="104" clip-path="url(#clipPath40)" x2="50" y1="50"
      /><line clip-path="url(#clipPath40)" stroke-dashoffset="0" fill="none" x1="50" x2="63" y1="80" y2="80" stroke-dasharray="none"
      /><line clip-path="url(#clipPath40)" stroke-dashoffset="0" fill="none" x1="50" x2="57" y1="80" y2="69" stroke-dasharray="none"
    /></g
    ><g stroke-linecap="butt" font-size="11px" transform="translate(455,440)" fill-opacity="1" fill="black" text-rendering="geometricPrecision" image-rendering="optimizeQuality" font-family="sans-serif" stroke-linejoin="round" stroke="black" stroke-opacity="1"
    ><line y2="177" fill="none" x1="50" clip-path="url(#clipPath41)" x2="50" y1="50"
    /></g
    ><g fill-opacity="1" text-rendering="geometricPrecision" stroke="black" stroke-linecap="butt" transform="translate(455,440)" stroke-opacity="1" fill="black" stroke-dasharray="5" font-family="sans-serif" stroke-linejoin="round" font-size="11px" stroke-dashoffset="1" image-rendering="optimizeQuality"
    ><line y2="177" fill="none" x1="50" clip-path="url(#clipPath41)" x2="50" y1="50"
      /><line clip-path="url(#clipPath41)" stroke-dashoffset="0" fill="none" x1="50" x2="56" y1="177" y2="165" stroke-dasharray="none"
      /><line clip-path="url(#clipPath41)" stroke-dashoffset="0" fill="none" x1="50" x2="44" y1="177" y2="165" stroke-dasharray="none"
    /></g
    ><g stroke-linecap="butt" font-size="11px" transform="translate(400,440)" fill-opacity="1" fill="black" text-rendering="geometricPrecision" image-rendering="optimizeQuality" font-family="sans-serif" stroke-linejoin="round" stroke="black" stroke-opacity="1"
    ><line y2="177" fill="none" x1="50" clip-path="url(#clipPath42)" x2="50" y1="50"
    /></g
    ><g fill-opacity="1" text-rendering="geometricPrecision" stroke="black" stroke-linecap="butt" transform="translate(400,440)" stroke-opacity="1" fill="black" stroke-dasharray="5" font-family="sans-serif" stroke-linejoin="round" font-size="11px" stroke-dashoffset="1" image-rendering="optimizeQuality"
    ><line y2="177" fill="none" x1="50" clip-path="url(#clipPath42)" x2="50" y1="50"
      /><line clip-path="url(#clipPath42)" stroke-dashoffset="0" fill="none" x1="50" x2="56" y1="177" y2="165" stroke-dasharray="none"
      /><line clip-path="url(#clipPath42)" stroke-dashoffset="0" fill="none" x1="50" x2="44" y1="177" y2="165" stroke-dasharray="none"
    /></g
    ><g fill-opacity="1" text-rendering="geometricPrecision" stroke="black" stroke-linecap="butt" transform="translate(59,134)" stroke-opacity="1" fill="black" stroke-dasharray="5" font-family="sans-serif" stroke-linejoin="round" font-size="11px" stroke-dashoffset="1" image-rendering="optimizeQuality"
    ><line y2="159" fill="none" x1="177" clip-path="url(#clipPath44)" x2="50" y1="50"
      /><line clip-path="url(#clipPath44)" stroke-dashoffset="0" fill="none" x1="50" x2="62" y1="159" y2="156" stroke-dasharray="none"
      /><line clip-path="url(#clipPath44)" stroke-dashoffset="0" fill="none" x1="50" x2="55" y1="159" y2="146" stroke-dasharray="none"
    /></g
    ><g fill-opacity="1" text-rendering="geometricPrecision" stroke="black" stroke-linecap="butt" transform="translate(150,134)" stroke-opacity="1" fill="black" stroke-dasharray="5" font-family="sans-serif" stroke-linejoin="round" font-size="11px" stroke-dashoffset="1" image-rendering="optimizeQuality"
    ><line y2="159" fill="none" x1="87" clip-path="url(#clipPath46)" x2="50" y1="50"
      /><line y2="212" fill="none" x1="50" clip-path="url(#clipPath46)" x2="50" y1="159"
      /><line clip-path="url(#clipPath46)" stroke-dashoffset="0" fill="none" x1="50" x2="56" y1="212" y2="200" stroke-dasharray="none"
      /><line clip-path="url(#clipPath46)" stroke-dashoffset="0" fill="none" x1="50" x2="44" y1="212" y2="200" stroke-dasharray="none"
    /></g
    ><g fill-opacity="1" text-rendering="geometricPrecision" stroke="black" stroke-linecap="butt" transform="translate(259,134)" stroke-opacity="1" fill="black" stroke-dasharray="5" font-family="sans-serif" stroke-linejoin="round" font-size="11px" stroke-dashoffset="1" image-rendering="optimizeQuality"
    ><line y2="425" fill="none" x1="50" clip-path="url(#clipPath48)" x2="50" y1="50"
      /><line y2="484" fill="none" x1="50" clip-path="url(#clipPath48)" x2="176" y1="425"
      /><line clip-path="url(#clipPath48)" stroke-dashoffset="0" fill="none" x1="176" x2="168" y1="484" y2="474" stroke-dasharray="none"
      /><line clip-path="url(#clipPath48)" stroke-dashoffset="0" fill="none" x1="176" x2="163" y1="484" y2="485" stroke-dasharray="none"
    /></g
    ><g stroke-linecap="butt" font-size="11px" transform="translate(748,232)" fill-opacity="1" fill="black" text-rendering="geometricPrecision" image-rendering="optimizeQuality" font-family="sans-serif" stroke-linejoin="round" stroke="black" stroke-opacity="1"
    ><line y2="80" fill="none" x1="104" clip-path="url(#clipPath40)" x2="50" y1="50"
    /></g
    ><g font-size="11px" transform="translate(820,308)" fill-opacity="1" fill="black" text-rendering="geometricPrecision" image-rendering="optimizeQuality" font-family="sans-serif" stroke="black" stroke-opacity="1"
    ><text x="10" xml:space="preserve" y="12" clip-path="url(#clipPath49)" stroke="none"
      >possui</text
    ></g
    ><g font-size="11px" transform="translate(450,546)" fill-opacity="1" fill="black" text-rendering="geometricPrecision" image-rendering="optimizeQuality" font-family="sans-serif" stroke="black" stroke-opacity="1"
    ><text x="9" xml:space="preserve" y="12" clip-path="url(#clipPath50)" stroke="none"
      >tem</text
    ></g
    ><g font-size="11px" transform="translate(513,530)" fill-opacity="1" fill="black" text-rendering="geometricPrecision" image-rendering="optimizeQuality" font-family="sans-serif" stroke="black" stroke-opacity="1"
    ><text x="5" xml:space="preserve" y="15" clip-path="url(#clipPath51)" stroke="none"
      >tem gestor</text
    ></g
    ><g font-size="8px" fill-opacity="1" fill="rgb(120,120,120)" text-rendering="geometricPrecision" image-rendering="optimizeQuality" stroke="rgb(120,120,120)" stroke-opacity="1"
    ><text x="0" xml:space="preserve" y="10" stroke="none"
      >Visual Paradigm Standard(Luis Neves(Instituto Superior de Engenharia do Porto))</text
    ></g
  ></g
></svg
>
